<svg width="160" height="29" viewBox="0 0 160 29" xmlns="http://www.w3.org/2000/svg">
    <path d="M6.672 27.754c.979-.372 13.413-.603 30.422-.756v-.592H9.036l-2.364 1.348zm45.572-.855c8.52-.044 17.59-.077 26.562-.099v-.394H52.244v.493zm35.633-.493v.373c6.563-.011 12.973-.011 18.976-.011 21.45 0 34.852.11 52.62.307l.527-.67H87.877zM68.373 11.174c-.22 5.45-.231 8.575-.033 9.376.198.811.725 1.634 1.572 2.49.67-.67 1.946-1.7 3.815-3.093l-.176-.724c-1.913 1.338-2.947 1.349-3.09 0-.142-1.338-.12-3.98.078-7.917l1.836.01 1.396-1.611-.121-.307-3.002.065.011-4.079c-.11-.877-.395-1.535-.88-1.952l-1.901 1.48c.704-.12.934 1.36.693 4.42l-1.265.055-2.078 2.116.341.603c.638-.745 1.572-1.063 2.804-.932zM56.62 23.072c.967.406 2.638-.976 4.782-3.213 0 1.459.308 2.566.924 3.312l2.188-1.777c-.803-.68-1.1-3.827-.913-9.452.187-5.626-.099-8.828-.858-9.595l-2.132 1.798c.615-.22.868 2.84.736 5.702-.824-.471-1.55-.69-2.188-.647-.637.044-1.407.253-2.298.636-.901.384-1.803 1.031-2.715 1.93-.913.9-1.506 2.139-1.792 3.707-.286 1.568.099 3.202 1.143 4.901 1.045 1.7 2.012 2.227 3.123 2.698zm-2.111-9.266c.176-1.645 1.11-2.577 2.825-2.818 1.55-.22 3.332.844 4.002 2.335l-.044 5.297c-.099.23-2.1 2.094-2.1 2.094-1.022.582-2.11-.032-3.243-1.798-1.143-1.765-1.616-3.465-1.44-5.11zm-39.503-.362c-.11 4.43-.11 6.996.022 7.676 0 0 .143 1.502 1.572 1.81l2.342-1.887-.176-.274c-.792.307-1.264-.197-1.407-1.524-.143-1.327-.154-3.553-.033-6.678 1.495-2.26 2.836-2.248 4.035.044l1.924-1.568c-.418-1.02-.957-1.667-1.628-1.93a2.502 2.502 0 0 0-1.968.022c-.637.274-1.473 1.085-2.528 2.423.099-1.261-.242-2.16-1.012-2.698l-2.682 1.996.252.384c.847-.68 1.276.055 1.287 2.204zm32.367-3.388c.759.153 1.067.965.957 2.434l-.044 6.69c-.66.624-3.189 2.61-3.595 2.51-1.408-.329-2.221-1.195-2.452-2.599l.044-7.687c.01-1.348-.363-2.193-1.122-2.544l-2.055 1.196c.681.438.989 1.59.912 3.432l-.033 5.702c.11 1.25.572 2.248 1.374 2.983.803.746 2.54 1.568 4.013.833 1.671-.833 1.671-1.052 3.068-2.006.055 2.028.044 3.684-.33 4.704-.22.22-.429 1.107-1.44 1.393-3.1.065-4.915-2.007-5.662-3.159l-1.573 2.435c2.1 2.105 4.563 2.643 7.52 2.28.297-.219 3.453-2.51 3.475-3.958l.099-12.391c.22-1.612-.044-2.775-.77-3.51l-2.386 1.262zM36.555 18.06c.275-4.354.374-6.854.286-7.49-.088-.636-.572-1.25-1.43-1.842l-2.385 1.579.12.307c.825-.483 1.22.033 1.22 1.546 0 1.513-.065 3.323-.186 6.163-1.165 1.02-3.551 3.147-5.024 2.928-1.408-.439-2.001-2.084-1.782-4.935.055-3.081.055-4.978-.01-5.713-.066-.735-.54-1.37-1.408-1.92l-2.298 1.635.198.35c.704-.361 1.1.154 1.199 1.558.088 1.414.088 3.19-.022 5.34.176 1.382-.121 2.555.901 3.805.253.318.649.987 1.638 1.35.99.361 2.111.504 3.288-.231 1.21-.724 1.935-1.316 3.254-2.325-.132 1.426.187 2.402.957 2.939L38.105 21l-.198-.264c-.934.614-1.385-.274-1.352-2.675zm-27.53 4.452c1.154-.483 2.353-1.612 3.617-3.389l-.957-.636c-1.99 2.084-3.628 2.5-5.618 1.261-1.99-1.239-3.298-3.081-3.903-5.515-.604-2.446-.428-4.606.539-6.503.957-1.897 2.254-3.005 3.881-3.312C8.2 4.112 9.3 4.364 9.85 5.176c.561.811.627 1.414.198 1.798l.242.252 2.034-1.469c.22-.592.011-1.316-.627-2.16-.648-.856-1.67-1.294-3.089-1.338-1.418-.044-2.683.428-3.815 1.426-1.11.975-2.089 2.193-2.936 3.651a13.936 13.936 0 0 0-1.693 4.748c-.286 1.711-.198 3.268.275 4.672.473 1.403 1.133 2.62 1.968 3.64a7.067 7.067 0 0 0 3.079 2.183c1.209.438 2.396.416 3.54-.066zM131.382 4.978c.033.011.033.165.11.275.065.11.153.11.186.164.033.055-.044.066.176.263.044.044.176.077.198.12.022.045.011.133.066.176.033.033.132.1.187.132.044.033.044.077.231.143.407.131.902.065 1.011.032.044 0 .088-.01.143-.022-.055.055-.11.11-.165.176-.12.153-.22.515-.164.746.066.23.077.361.296.372 0 0 .088.198.253.154 0 0 .198.164.297.143.055-.011.198.219.341.153.044-.022.11.11.264.033.044-.022.286.022.34-.252.012-.077.11-.066.012-.362a9.08 9.08 0 0 0-.32-.8c.078.109.133.186.144.186.022.055.12.197.176.23.055.033.077.055.088.077.01.022.044.066.066.099a.467.467 0 0 0 .153.12c.033.022.044.011.066.044a.666.666 0 0 0 .187.12c.033.012.077 0 .11 0a.753.753 0 0 0-.154-.394c-.033-.044-.066-.11-.099-.154a.331.331 0 0 0-.088-.087c-.01-.011-.022-.044-.044-.088a9.711 9.711 0 0 0-.373-.428c.373.241.857.483 1.165.592.363.132.506.044.506.044.176.011.297-.12.374-.131.187-.022.242-.154.275-.176.142-.088.12-.22.164-.252.132-.088 0-.307.033-.35.066-.067.022-.319.022-.319.11-.12-.01-.285-.01-.285.087-.186-.023-.34-.199-.472-.307-.23-.802-.208-.989-.186-.022 0-.055.011-.088.011.055-.055.088-.11.088-.143.044-.054.308-.208.253-.394-.011-.044.066-.1.12-.296.045-.165-.01-.22-.01-.22s.01-.142.022-.22c.022-.185-.033-.196-.088-.284-.022-.033 0-.033-.066-.22-.044-.12-.176-.12-.176-.175-.077-.757-.517-.811-.627-.8-.264.032-.88.899-1.187 1.688-.176.46-.242 1.426-.187 1.93-.011-.022-.011-.044-.022-.066-.11-.021-.132.055-.165.011a5.12 5.12 0 0 1-.033-1.403l.033-.132c.022-.088-.022-.296-.055-.307-.033-.01-.066-.01-.077.088a.55.55 0 0 0 .033.285l.022.066c-.033.252-.044.976.044 1.414h-.01a3.245 3.245 0 0 1-.87-1.239c-.021-.077-.01-.11-.021-.186-.011-.077-.033-.198-.1-.198-.043.011-.032.132-.021.187 0 .022.022.131.11.197.175.46.505.932.857 1.24 0 .021-.01.076 0 .109a.12.12 0 0 0 .022.044s0 .01.011.022c-.462-.428-1.033-1.02-2.375-1.513-.417-.132-.692-.132-.802.076-.143.285.11.505.33.592zm2.935.987h.033v.033c-.01.011-.01-.01-.033-.01v-.023zm12.93.867c-.143 9.233-.121 14.19.054 14.858.176.67.671 1.229 1.474 1.678l2.33-1.7-.208-.307c-.605.044-1.023-.46-1.265-1.513l.033-2.204s1.726-1.228 2.419-1.02c.693.209 1.484 1.261 2.375 3.17.89 1.907 1.704 3.07 2.44 3.486l2.133-1.853-.197-.482c-.66.318-1.452-.505-2.364-2.446-.913-1.94-1.847-3.026-2.782-3.246 1.265-.658 2.87-1.842 3.167-2.741.296-.9.154-1.71-.44-2.445-.583-.735-1.32-1.031-2.21-1.02-.67.01-2.397 1.228-3.024 1.787-.516.417-1.12 1.031-1.616 1.305l.143-7.851c-.154-.713-.484-1.272-.99-1.645l-2.143 1.36c.528.69.747 1.633.67 2.829zm2.385 6.349c.825-.855 2.43-2.402 3.299-2.314.868.077 1.33.143 1.473 1.152.154.986-1.012 2.28-1.308 2.576 0 0-3.255 1.974-3.486 2.062l.022-3.476zm-14.128 7.698c.66.833 2.012 2.182 3.728 2.358.945.01 2.627-.472 3.55-1.437.924-.965 1.936-1.985 2.595-2.96l-.571-.812c-.253.34-2.452 2.533-3.035 2.796-.582.263-.78.241-1.517.143-.737-.1-1.462-.603-2.188-1.316-.736-.746-1.32-1.788-1.77-3.147-.45-1.36-.407-2.446.11-3.235.517-.79 1.264-1.316 2.243-1.568.978-.253 1.792-.209 2.463.142.66.351 1.286 1.097 1.88 2.248l1.77-1.502a4.198 4.198 0 0 0-1.1-2.04c-.55-.548-1.121-.9-1.737-1.042a2.95 2.95 0 0 0-1.77.121 9.82 9.82 0 0 0-1.583.822c-.495.318-1 .691-1.528 1.13-3.365 2.774-3.881 5.878-1.54 9.299zm-9.323 2.138c1.364.472 2.793.143 4.277-.976 1.484-1.13 2.55-2.544 2.716-2.818l-.407-.811c-.143.274-2.606 2.489-3.397 2.642-1.133.209-2.43-.197-3.002-.658-.572-.46-1-.954-1.32-1.48l4.19-2.818c2.122-1.338 3.09-2.709 2.88-4.123-.209-1.415-1.088-2.248-2.66-2.5-1.573-.253-3.035.24-4.41 1.48-1.374 1.239-2.253 2.686-2.638 4.353-.385 1.667-.605 5.823 3.771 7.71zm-2.1-8.729c.011-.943.396-1.809 1.144-2.62.747-.812 1.56-1.097 2.44-.867.88.23 1.496.845 1.837 1.832.34.997.296 1.754-.132 2.28-.451.527-2.012 1.569-4.706 3.104a7.213 7.213 0 0 1-.473-1.568c-.088-.505-.132-1.217-.11-2.16zm-12.863 7.183c1.275 1.184 2.287 1.787 3.056 1.799.759.01 1.968-.757 3.617-2.281a15.013 15.013 0 0 0 1.825-2.03c.583-.789.957-1.6 1.133-2.444.165-.856.132-1.777-.121-2.786-.253-1.009-.968-2.105-2.155-3.3-1.187-1.196-2.617-1.645-4.299-1.35-1.693 1.13-2.891 2.117-3.595 2.95-.704.834-1.198 1.678-1.484 2.534-.286.855-.341 1.919-.154 3.202.176 1.283.912 2.522 2.177 3.706zm-.176-7.917c.462-1.525 1.264-2.413 2.419-2.665 1.154-.252 2.418.483 3.793 2.237 1.374 1.755 1.913 3.608 1.616 4.847-.022.318-2.045 2.445-2.254 2.599-.967.735-1.638.658-2.716-.252-1.088-.91-1.946-1.886-2.583-2.928-.638-1.042-.726-2.314-.275-3.838zM94.539 6.448c-.033 2.215-.088 14.31.044 14.848.176.712.682 1.283 1.54 1.721l2.451-1.974-.154-.394c-.77.504-1.209.285-1.33-.691-.12-.954-.132-3.476-.033-7.567 2.023-.307 4.87-.45 6.245-.427l.363-.044c0 .022-.022 8.85.12 9.398.166.723.682 1.304 1.54 1.732l2.452-1.974-.154-.405c-.77.515-1.21.285-1.33-.691-.122-.965-.155-5.878-.089-14.738-.044-1.338-.33-2.61-.868-2.994l-2.485 2.303c.297.395.847-.757.88 1.93-.022 1.25-.033 2.423-.044 3.52l-2.232.077v.01l-4.365-.01-.033.032-.055-4.89c-.044-1.338-.33-2.204-.869-2.588L93.77 4.693c.516.242.747.593.77 1.755zM33.048 3.564h-.022c.01.01.022.01.022 0zm.077-.022c-.011 0-.022-.011-.033-.011a.621.621 0 0 0-.132-.044l.066.033c.077.044.11.055.099.022zm.077-.943c-.022-.011-.066-.011-.154-.022h-.066a.65.65 0 0 1 .154.022c.033.01.055.01.066 0zm-.1.987c.012 0 0-.011-.021-.011.01.01.022.022.022.01zm.275.603c0-.011-.01-.011-.022-.011-.022 0-.022 0-.01.01.021.012.043.012.032 0zm-.373-.625c.01 0 .01 0 0 0 .01-.022-.033-.033-.044-.033-.011.011.033.033.044.033zm.758-.855c-.022-.022-.01-.011 0 0zm-.308-.198c.022 0 .022 0 0-.01-.022-.012-.033-.012-.044-.012.011.022.033.022.044.022zm-.274.241h.044c0-.01 0-.01-.044 0zm0 0c-.044-.01-.044 0 0 0zm.12 1.415c0-.011-.033-.011 0 0zm-.362.263h.01c.012-.01 0-.01-.01 0zm1.044.976c.011 0 .011.011.011.011 0-.022 0-.033-.01-.055h-.023c-.01-.01-.01.022.022.044zm-1.572.428a.083.083 0 0 1 .044-.022h-.022c-.033 0-.044.01-.022.022zm1.561-.527c0 .022.011.044.011.055.022 0 .011-.022-.01-.055zm-.99.713c0-.01-.01-.022-.01-.022 0 .011-.011.033-.011.044.01 0 .022-.01.022-.022zm.286-3.772h.011a.254.254 0 0 1-.098-.033c-.055-.01-.11-.01-.11-.01l.01.01h.012c.033 0 .132.022.175.033zm-1.847.866h-.077.077zm2.067 2.281c0-.022-.01-.033-.01-.044 0 .011 0 .022-.012.033v.022c.011.022.011.044.022.077.011-.022.011-.033 0-.088zm.43-.197c-.012.01.032.066.054.11 0-.022-.01-.033-.01-.044-.012-.022-.012-.033 0-.044v-.011c-.023-.022-.034-.022-.045-.011zm-1.738.614s0 .01.011.01l.011-.01h-.022zm2.672-1.217a.262.262 0 0 0-.055.153c0 .022 0 .033-.022.044a.338.338 0 0 1-.022.088v.01c0 .012-.011.034-.011.045.033.022.044-.011.055-.1 0-.021.01-.054.033-.12.01-.01.022-.076.022-.12zm-1.452-1.316c.022 0 .044.01.066.01-.033-.01-.055-.01-.066-.01zm.1 1.831s-.012.011-.012.022c0 0 0-.011.011-.022zm-.056-2.05c.077.01.1.021.1.01 0-.01-.1-.032-.11-.022-.012.011-.012.011.01.011zm-1.704.844c.044.022.1.066.121.077a.167.167 0 0 0 .088.043c.022.011.055.033.077.044l.066.033c.022 0 .033.011.044.022.044.044.198 0 .165.077-.011.033-.011.033.011.066.011.022.055.044.099.065l.077.033-.022.011a.084.084 0 0 1-.055.022c-.044.011-.055.022-.011.033.099.022-.11.044-.066.066.022.01.022.01-.022.01-.033 0-.044 0-.055.023-.011.01-.022.022-.044.01-.033 0-.055.012-.044.034 0 .022-.088.077-.11.077-.01.021-.01.043.022.043.011.011.011.011-.022.033a.086.086 0 0 0-.044.044c-.01 0-.01.011 0 .022.011.011.011.022 0 .022l-.01.011a.06.06 0 0 0-.034.055v.066c.033.022.022.043-.01.065-.023.022-.034.044-.056.066-.033.011-.044.033-.022.044.011.011 0 .011-.01.022-.034.022-.023.033.01.033h.033l-.033.022v.066c-.01.01-.01.022 0 .032.011.011.011.011 0 .022-.01.011-.01.022 0 .055.011.022.033.044.044.066 0 .011-.01.033-.022.033 0 .022-.01.044-.01.066a.083.083 0 0 0-.023.044c0 .01 0 .032-.01.043-.012.033.01.033.021.011.022-.032.033-.022 0 .022s-.033.055.011.033l.022-.01-.022.021c-.022.022-.022.055 0 .033.022-.01.033 0 .011.011 0 .044.022.044.055.022.011-.022.132.011.143.022a.16.16 0 0 0 .077.022c0-.011.011-.022.011-.022.011.01.011.01.011.022.022 0 .033 0 .055-.011.011 0 .011-.011.011-.011.022 0 .044.01.066.01.033 0 .066 0 .099.012.01 0 .022 0 .044-.011-.011 0-.011.01-.022.01h.143c0 .012.01.012.01.034 0 .01-.043.022-.076.01-.022-.01-.033-.01-.044 0-.011.012-.143.012-.143 0h-.011s-.044 0-.077-.01a.5.5 0 0 1-.176-.033c-.044-.033-.088-.022-.11.033 0 .022-.01.044-.01.077a.033.033 0 0 1 0 .043c0 .022 0 .022.01.022.011 0 .022 0 .011.022v.022c.033-.022.044-.01.022.044-.01.022-.01.022.011 0 .022-.022.033 0 .022.022-.022.022 0 .033.022.022.022-.011.022-.011.011 0-.01.044-.01.055 0 .055 0 0 .011-.011.011-.022s.011-.022.022-.022.022 0 .022.022c0 .01.022.033.044.055.033.033.044.033.033.065-.011.033 0 .033.011.033.022.011.033.011.055.022.033 0 .066 0 .088.033.022.011.044.022.044.033.022.022.033.022.044-.022-.022-.022 0-.044.055-.033.022 0 .022.011.022.033-.011.022.01.033.033.011.01-.01.022-.01.055-.066a.254.254 0 0 1 .077-.076c.044-.044.066-.044.077-.044.022.01-.033.087-.033.11.033.021.033.043.022.076-.022.022-.044.044-.044.055 0 .01-.011.022-.011.044 0 .01 0 .033.01.044.012.022.023.033.012.054-.011.022-.011.066-.011.1 0 .076.01.098.055.087.044-.011.044-.055 0-.077-.011-.01-.022-.01-.011-.044 0-.022.01-.044.022-.055.01-.01.01-.054.022-.098 0-.066.01-.099.022-.11.01-.01.022-.055.033-.077a.204.204 0 0 1 .055-.11c.033-.021.044-.065.055-.13v-.023s-.011 0-.011-.01c0-.056.01-.067.022-.034 0-.01.01-.033.022-.055.01-.021.033-.043.033-.043.01 0 .01.033.01.087 0 .044 0 .099.012.11.01.011.01.044.022.077.01.033.01.077.022.098.01.055.033.077.066.066.022-.01.022-.01.044.011.022.022.022.022.01.055-.01.033-.01.044 0 .055.012.01.012.022 0 .044-.01.01-.01.044-.01.066 0 .021 0 .043-.011.065-.022.033-.022.165 0 .198.022.044.044.055.098.033.055-.011.066-.033.066-.055a.221.221 0 0 1-.088-.044c-.01-.033-.01-.033 0-.099.011-.033.022-.077.033-.077.011-.01.011-.065 0-.076-.01 0 0-.011.011-.033.011-.022.011-.033.011-.055-.01-.033-.022-.044-.022-.011 0 .011-.01.022-.022.033-.022.01-.032 0-.022-.022.011-.033.033-.044.077-.055.066 0 .066-.01.11-.099a.1.1 0 0 1 .033-.076c.022 0 .033-.033.022-.066 0-.033.011-.033.022 0 0 .01.011.022.022.033a.152.152 0 0 0 0-.099c.011 0 .011-.01.011-.066 0-.033 0-.065.011-.076a.364.364 0 0 0-.01-.154c-.012-.033-.012-.055-.023-.088-.01-.033-.01-.055-.01-.087-.012-.033-.023-.077-.034-.121l-.01.01c-.012.023-.034.023-.034.012v-.022l.011.01c.011-.01.011-.032.011-.076 0-.01-.01-.022-.01-.033 0-.01.01-.022.01-.044 0-.01-.01-.022-.01-.033v-.043c.01-.011.021-.044.021-.077 0-.022 0-.033.011-.044l-.01-.011c-.012-.022-.012-.044-.012-.066v-.01a.214.214 0 0 0-.11-.11c-.01-.011-.01-.033-.022-.066-.01-.033-.022-.055-.022-.066 0-.01 0-.01.011-.01s.033.021.044.054c.022.033.033.055.044.055.011.033.033.055.066.087.022.011.022.022.022.066v.055c.011 0 .022 0 .033.022.033.022.033.022.055.143 0 .021.011.043.022.065.011.011.011.044.022.066a.754.754 0 0 1 .033.088c.022.044.022.066.022.142 0 .088 0 .088.022.088a.033.033 0 0 1 0 .044c0 .011-.01.044-.01.077a.376.376 0 0 0-.012.153c.011.022.033.011.044-.033.011-.022.011-.054.011-.065 0-.022 0-.044.011-.077.022-.055.022-.077 0-.12a.439.439 0 0 1-.033-.165c0-.044 0-.055.011-.077.055-.055.077-.022.077.077 0 .055-.01.055-.033 0-.033-.055-.044-.055-.033 0 .011.01.011.033.011.055 0 .032.011.054.044.043.044-.01.044 0 .033.077 0 .033-.01.088-.01.099v.044c.01.01.01.022-.012.044a.328.328 0 0 1-.044.087c-.022.022-.022.033-.022.121 0 .044 0 .055.033.077a.1.1 0 0 0 .077.033c.121-.011.121-.033.022-.044-.044 0-.055-.011-.066-.055-.01-.033 0-.033.011-.044.011-.01.022-.022.022-.055.011-.033.011-.044.033-.033.022 0 .022 0 .033-.044 0-.021.011-.043.022-.054.011-.011.022-.033.022-.077.011-.12.011-.143.033-.165.022-.01.022-.022.011-.054v-.066c.011-.011.011-.022.011-.044v-.044c0-.01 0-.01-.01-.022v.077c-.012.01-.034.01-.034.01s0-.021-.01-.043c-.012-.044-.012-.23-.056-.274.011-.022.033-.022.055 0 .011.01.022.01.011.022l.011.01c.033.034.066.045.055.012-.01-.033-.022-.044 0-.055.011-.011.011-.011.011-.033-.01-.044.011-.055.044-.022.011.011.033.033.033.044.011.044.033-.022.033-.022.011-.011.033.01.033.022.011.022.022.01.022-.011 0-.022.011-.044.022-.033.011.011.022-.01 0-.033 0-.01.011-.022.022-.022.011-.022.055.033.055.055 0 .044-.011.23.022.252.01.011.01.077 0 .143-.011.044-.011.044.022.066.022.01.033.022.033.032 0 0-.011.011-.033.011-.044.011-.033.033.01.077.11.088.144-.066.166-.131.01-.033.01-.044 0-.055-.011-.011-.011-.022.01-.022l.012-.011s0-.011.01-.022c.012-.044.023-.077.034-.11.01-.01.022-.022.022-.044.01-.032.01-.043.033-.065.022-.022.033-.022.022-.044 0-.011 0-.033.01-.055.023-.055.056-.132.078-.22-.011 0-.011-.01-.022-.01l.033-.033v-.011c-.011-.033 0-.055.01-.077 0-.01 0-.033.012-.044 0-.033.01-.066.022-.077.022-.021.022-.153.022-.153.01.01.022.022.022.066.01-.033 0-.011 0 .01 0 .023 0 .056.01.088 0 .121.034.23.078.307.01.022.022.044.022.066.01.033.01.033.044.033.044 0 .077-.01.12-.055l.056-.055c.033-.032.054-.065.098-.098.088-.077.132-.154.132-.252.011-.011.011-.022 0-.033-.01 0-.01-.011-.01-.022 0 0 .01 0 .01.01.033 0 .044-.01.044-.032.011 0 .011-.066-.01-.088-.012-.01-.012-.033-.012-.055 0-.033 0-.044.022-.044s.022-.022 0-.033c-.022-.01-.022-.032 0-.043.022-.011.022-.022-.01-.044-.034-.022-.034-.022-.023-.055.011-.033.044-.055.088-.077.022-.01.022-.01.077.011a.236.236 0 0 1 .077.044c.055.033.187.044.253.066a.215.215 0 0 0 .088.01c.022 0 .066 0 .077.012.022 0 .132.01.242.01h.209l.022-.021c.01-.022.01-.022.01-.033-.032-.033-.11-.044-.384-.044-.099 0-.165-.011-.165-.011l-.099-.022a1.437 1.437 0 0 1-.143-.033.409.409 0 0 0-.099-.022c.022.011-.275-.098-.11-.076.154.021.341.021.451.01h.22c.055 0 .12-.01.154-.01.066 0 .077-.011.154-.033.286-.143-.033-.165-.022-.165-.132.022-.363.033-.847.011-.066 0-.099 0-.11.011-.033.011-.077.154-.12.132l-.023-.011h.022c.033 0 .033-.011 0-.055-.01-.022-.022-.033-.022-.044 0-.022-.11-.088-.132-.088-.01 0-.022 0-.044-.01-.022-.012-.032-.012-.054-.012-.055.022-.154-.01-.21.033-.032.055-.065.099-.087.154-.011-.022-.033-.033-.055-.044h-.022l.022-.033c.11-.154-.044 0-.055 0-.033 0-.033-.022 0-.044.033-.044.022-.066-.022-.066s-.077.022-.11.044c0 0 0-.01.01-.022.023-.022.023-.055.012-.066-.011-.01-.022.011-.033.033 0 .011-.011.022-.022.033-.011-.022-.011-.044-.011-.066-.011-.032-.033-.043-.066-.021-.011.021-.022.01-.011-.011 0-.011-.011-.033-.044-.066s-.055-.066-.055-.077a.083.083 0 0 0-.022-.044l-.022-.022c0-.055-.121-.087-.11-.142 0-.022 0-.022-.022-.033l-.044-.044a.684.684 0 0 0-.099-.132l-.044-.065-.044-.066c-.022-.022-.033-.055-.055-.077 0-.011-.11-.186-.143-.208-.01 0-.044-.055-.143-.22-.033-.044-.055-.098-.066-.098-.01-.011-.022-.033-.033-.044-.055-.077-.11-.154-.154-.23 0-.011-.01-.022-.022-.022-.022 0-.066-.033-.088-.066a.442.442 0 0 0-.142-.143c-.121-.055-.143-.055-.077 0 .022.011.055.033.077.044.044.033.055.055.033.077l-.011.12c.01.022 0 .033-.033.022-.011 0-.033-.01-.044 0-.011 0 0 .011.044.022a.166.166 0 0 1 .087.044c.022.022.033.033.022.044h.033c.011 0 .033.011.044.022.033.055.055.077.066.088 0 .044-.01.044-.055.01a.113.113 0 0 0-.066-.054 2.359 2.359 0 0 1-.164-.066c-.022-.01-.033-.022-.055-.033-.154-.022-.11 0-.077.011.01.011.01.011.022.011.022 0 .022 0 .055.044.01.022.066.11.088.12.022.012.066.1.055.121 0 .033-.011.033-.088.011-.044-.01-.066-.01-.055 0a.34.34 0 0 1 .132.055c0 .01 0 .01-.011.01.022.012.022.012.033.034.021.033.01.044-.011.033-.011 0-.033-.011-.066-.011-.022 0-.088-.011-.121-.011-.066 0-.077 0-.088-.022-.011-.011-.011-.022 0-.033.01-.011.022-.011.033-.011h-.011c-.044 0-.055 0-.055-.022s-.011-.044-.022-.044c-.011-.01-.022-.11 0-.131.01-.022 0-.044-.011-.055 0-.011 0-.011.055-.022.077 0-.066-.022-.055-.143 0-.076.01-.11.01-.153 0 0 .11-.198.122-.187-.022-.022-.044-.01-.088.011-.044.033-.066.066-.1.264-.01.043 0 .11.023.274.01.087.022.164.033.252l.022.11c.033.142.033.153.044.186 0 .01.022.055.033.088a.46.46 0 0 0 .088.164c.066.066.077.088.033.099-.022.01-.055.022-.077.033-.022.01-.022.044.01.098.023.033.045.077.067.11.01.022.022.033.022.044h.022c0 .01.01.022.022.022.022.01.033.022.055.033.022.01.022.022.01.022-.01.01-.01.01-.021 0-.022-.011-.033-.011-.033 0 .022.022.142.044.12.087-.01.011-.044.022-.065.011h-.055c-.022 0-.044 0-.044-.01 0 0-.418-.176-.275-.198.033-.01.066-.022.099-.022-.033-.01-.077-.033-.088-.033-.033-.01-.1-.044-.154-.055a.54.54 0 0 0-.11-.043c-.055-.011-.11-.033-.165-.055-.077-.022-.143-.044-.22-.066-.044-.011-.088-.033-.099-.033-.01 0-.033-.01-.055-.01-.11-.045-.33-.067-.44-.078-.022 0-.11-.01-.187 0h-.022c.033.011.077.099.121.12a.96.96 0 0 0 .21.056c.065.01.197.033.22.044.021.01.11.022.197.033.033 0 .033 0 .022-.011-.022-.011-.033-.011-.055-.022l-.066-.022c-.033-.011-.066-.011-.077-.022-.066-.022-.154-.033-.22-.044-.044-.011-.088-.011-.11-.022-.01-.011-.055-.022-.088-.033-.055-.022-.088-.044-.077-.055.011-.022.1-.022.165 0 .011 0 .044.011.077.022s.066.022.077.022c.033.011.1.022.121.033.011 0 .033.01.055.01.055.012.066.012.055 0 .011-.021.022-.01.033.012 0 .01 0 .022.011.022s.055.01.11.033l.165.033c.077.033.165.065.165.054h.044s.01.011.044.022c.055.033.066.033.066.022a.157.157 0 0 0 .066.022c.01.011.066.022.099.033.044-.01.055-.01.044.011 0 .011-.011.011-.022.011a.034.034 0 0 1-.044 0c-.022-.01-.044-.01-.044 0 .01.033-.1.011-.165-.022-.022-.01-.044-.022-.077-.022 0 0-.022-.01-.033-.01-.011 0-.066-.023-.121-.034-.099-.033-.154-.043-.132-.022.011.011.022.011.044.022.088.033.044.055-.121.077-.044.011-.099.022-.12.033-.034.022-.045.022-.122.011-.055 0-.56-.164-.67-.186 0 0 0 .01.01.01.066.022.231.066.65.209.032 0 .065.01.076.022.022.01.044.022.055.033a.06.06 0 0 0 .055.033c.011 0 .044.022.077.065a.224.224 0 0 0 .055.055c.176.099.165.088.011.12a2.535 2.535 0 0 1-.286.034c.022.01.022.022.044.022-.044 0-.077-.011-.044-.022a.288.288 0 0 1-.099-.055c-.022-.011-.044-.033-.066-.044-.077-.066-.286-.142-.33-.23 0-.011-.033-.044-.055-.055a.774.774 0 0 1-.142-.143c-.011-.022-.022-.032-.033-.054-.044-.011-.055-.022-.055-.022s.033.01.044.01c-.022-.032-.033-.065-.044-.098-.011-.055-.011-.055.022-.077.022-.022.076-.033.131-.044-.044 0-.065.011-.098.022-.077.022-.1.044-.11.077-.011.055.077.241.153.329.066.066.363.307.451.362zm2.177 1.787c.011-.033.022-.033.033-.01.022.032-.01.076-.033.054-.01-.01-.01-.022 0-.044zm1.473-1.085-.01-.011c.021.01.021.01.01.01zm.088-.603c.011.01-.022.043-.055.032-.01 0-.022-.01-.022-.01 0-.012.066-.033.077-.022zm-.077.361s0 .011.011.011c0 .011-.01.011-.01.011v-.022zm0 .176h-.022v-.011c.011 0 .022 0 .022.01zm-.022-.395c.011 0 0 .033-.01.055 0-.022-.012-.033-.012-.055h.022zm-.01.494v.054c-.012.011-.012-.01-.012-.01 0-.012.011-.033.011-.044zm-.363-.406c0 .01.01.022 0 .01 0-.01 0-.01-.011 0 0 .023-.011.023-.011.012v-.022c.01-.011.01-.011.022 0zm-.033-.187h.01v.022c0 .011-.01.011-.01 0 0-.01-.011-.01 0-.022zm-.1.46c0 .023-.021.012-.021-.01 0-.011 0-.033.01-.033.012-.01.023.022.012.044zm-.021-.12s.01-.01.01 0v.011c0-.01-.01 0-.01-.01zm-.055-.427c-.011 0-.011 0 0 0 0-.022 0-.022 0 0zm0 .614c-.011.044-.011.077-.011.055 0-.011 0-.022-.011-.033 0-.011.01-.011.022-.022zm-.066-.757-.011-.01c0-.034.033.021.01.01zm-.22 1.415a.213.213 0 0 0 .01-.143c0-.088 0-.099.023-.11.01-.021.022-.043.044-.054.01-.011.033-.022.033-.033.033-.066 0 .142.01.098-.021.088-.021.176-.054.253a.33.33 0 0 0-.044.153c0-.077-.044.209-.044.132 0 0-.011-.022-.022-.033-.022-.033-.022-.033 0-.055.01-.01.01-.022.01-.033-.01-.033.012-.131.034-.175zm-.033-1.492c.01.022 0 .022-.033-.01 0-.023.022.01.033.01zm-.022 1.393c0 .066 0 .066-.022.011-.011-.055.022-.186.022-.011zm-2.012-.855a.136.136 0 0 1-.033-.022c0-.055-.011-.066-.022-.077-.011-.022 0-.066.022-.066h.56c-.098 0 .243.022.254.022.022 0 .065-.01.087-.01h.044c-.01.01-.01.032-.01.032.032.011.065.033.065.044a.23.23 0 0 1 .066.044s-.022 0-.033-.011c-.033-.022-.044-.022-.033 0 .011.01 0 .022-.01.022.01 0 .021.01.032.022.011.01.011.01-.01.022-.023.01-.067 0-.067-.011.011-.022.033-.033.044-.033h-.01c-.012 0-.034-.011-.045-.011-.022 0-.033 0-.022.01.011.023-.076.023-.098 0-.011-.01-.022-.01-.044 0a.129.129 0 0 1-.121-.021c-.022-.022-.033-.022-.121-.022-.132 0-.198.01-.231.033-.033.022-.033.022 0 .033.033.01.11.054.12.076.012.022.034.022.045 0 0-.01.01-.01.022 0 .022.022.077.033.099.033.01 0 .01 0 .022.022v.022h-.055c0 .011-.011.022-.033.044 0 .011-.033.011-.033 0 0 0 .01-.01.01-.022 0 0 .023-.01.034-.022-.022 0-.044-.01-.044-.01-.044-.012-.088-.034-.11-.067-.022-.032-.044-.043-.055-.032 0 0 0 .01.01.021.089.044-.032.011-.065 0-.011-.01-.011-.01-.011-.021.055-.022-.077.01-.044.01-.022 0-.044 0-.088-.021-.033-.011-.066-.033-.088-.033zm.506-.23c0-.012.01-.012.099-.012.165.011.252.011.274.033.044.022.044.022.033.055-.01-.01-.175-.033-.208-.044h-.088c-.022.011-.121 0-.11-.01 0 0 .01-.012 0-.023zm.461.043c.033.033.022.022 0 0zm0-.307s-.01-.01-.022-.01c-.022 0-.022-.012 0-.023.011-.022.055-.022.066-.01.044.01.1.021.165.043.022.011.044.022.055.011.011 0 .022 0 .033.011.011.011.033.011.044.022.022.011.022.011.022.033 0 .01 0 .022.022.033.055.022.033.022-.055.01 0 0-.022-.01-.044-.01a.084.084 0 0 1-.055-.022c-.022-.011-.044-.022-.066-.022-.022-.011-.154-.044-.165-.066zm.066.066v-.022c.044.033.044.033 0 .022zm-.132-.164v-.022c.011 0 .088.01.1.022.021.01.01.021-.023.01-.022-.01-.033-.01-.044 0-.022.011-.022.011-.033-.01zm.44.274c-.01.022-.022.022-.033 0-.01-.033.033-.011.033 0zm-.253.537c.011 0 .011 0 .022.01 0 .012 0 .012-.01.012-.012 0-.023-.011-.023-.011 0-.011 0-.011.011-.011zm-.044-.055c-.01-.01-.01-.01 0-.022.011-.01.033-.01.033.011 0 .022-.022.033-.033.011zm.033-.033c.033-.044.066-.044.1-.01a.084.084 0 0 1-.056.021c-.01.011-.033 0-.044-.01zm.044-.11v-.021c.088.022.088.022 0 .022zm.088-.054h.011v.022c-.01 0-.033.01-.044 0-.022-.011-.01-.022.033-.022zm-.01.23c.01.011.01 0 .021-.01.011-.012.011-.012.022 0 .011.01.011.043-.01.032-.012 0-.012 0-.012.022s0 .022-.01.022c-.012 0-.012-.011-.012-.022s-.01-.011-.01-.022c-.012 0-.012-.011-.012-.022h.022zm.021-.318c.011.022.011.022 0 0h-.033s.011.011.022.033l.011.01v.023a.157.157 0 0 1-.066-.022c-.044-.022-.055-.044-.044-.055h.011c.033 0 .066 0 .1.011zm-.154-.12c-.01-.012-.01-.023-.01-.023h.065c-.022.044-.044.044-.055.022zm.033.065c-.01 0-.022 0-.022-.01.011-.012.011-.012.022.01zm-.01.077c.043.022.043.022.01.022-.01 0-.022-.011-.033 0-.01 0-.01 0-.01-.011-.012-.022-.023-.033-.034-.033-.099-.044.055.022.066.022zm-.254.143c.022.01.022.01 0 .032-.022.011-.032.044-.043.066v.011c0 .011-.022.011-.033-.01-.011-.012-.011-.012 0-.023.022-.01.022-.076-.011-.098l-.022-.011h.033c.022.022.033.022.022.01 0-.01 0-.01.022-.01.01 0 .032.01.043.01.022.012.055.044 0 .012-.01-.011-.022-.011-.022 0 0 0 0 .01.011.01zm-.032.142c-.011-.01.01-.01.021.011-.01 0-.021 0-.021-.01zm.032 1.119c-.01-.011-.032-.011-.022-.022.011 0 .011.01.022.022zm-.34-1.01c-.011 0-.022-.021-.022-.032a.084.084 0 0 0-.055-.022c-.011-.011.022-.022.033-.011h.033c.01 0 .01 0 .01.022v.033c.012.01.012.022 0 .01zm-.011.067c-.011 0-.011-.011-.011-.022.01 0 .022 0 .01.022.023.01.023.01 0 0zm-.022.043c.022 0 .044.011.044.011 0 .011.01.011.022.011.033-.01.088.066.099.077 0 .022 0 .022-.022.022a.228.228 0 0 1-.066-.022c-.077-.044-.231-.088-.275-.164 0-.011 0-.022.01-.022.023-.011.034-.011.045.01.01.034.11.066.143.077zm.066-.131v-.022c0-.011 0-.022.01-.033.012-.011.023-.011.023-.011.01 0 .01.022-.011.044l-.022.022zm.033-.209c.044.011 0 .011 0 0zm.066.702c.022.077.01.088-.022.044-.011-.022 0-.044.022-.044zm0-.362c-.022.022-.033.022-.033-.032 0-.033 0-.044.01-.055.023-.022.034-.022.023 0-.011.01-.011.022 0 .033.01.022.022.043 0 .054zm-.011-.153c.01-.022.033 0 .01.01-.01.012-.021.012-.021.012-.011-.011 0-.011.01-.022zm.01-.143c-.021-.033-.021-.033.023-.01.022.021.033.01.022 0-.011-.034.022-.034.044 0 .022.021.01.032-.011.032-.011 0-.022 0-.022.011-.022.011-.044 0-.055-.033zm-.22-.076-.043-.022c-.022-.011-.044-.033-.044-.033h.033c.022 0 .033.01.044.033l.01.022zm-.22.021c.023-.01.045.011.045.033-.022.022-.022.022-.044.011-.022-.01-.022-.033 0-.044zm-.021.834c-.011-.011-.022-.011-.033 0-.011.01-.022.01-.022-.022 0-.033.033-.033.055-.011.022.022.022.044 0 .033zm.077-.724c.01-.01.01 0 0 0-.011-.01-.011-.022 0 0zm-.165.658c.01.011.022.022.01.033-.01.011-.043 0-.043-.011-.011-.01.01-.022.033-.022zm-.077-.01c.01.01.01.021-.022.01-.011 0-.022-.01-.022-.01a.034.034 0 0 1 .044 0zm-.011.054c.022.01.033.022.044.01.022 0 .033.012.033.034.022.01.022.01.033 0 .01-.011.01-.011.022 0 .044.01.099.033.154.033.033.01.055.01.088.022a.225.225 0 0 0 .12 0c.023 0 .034 0 .034-.022 0-.011-.011-.011-.066-.022-.033 0-.1 0-.143-.011-.077-.011-.077-.011-.088-.033 0-.011-.011-.033-.011-.033.022 0 .033.011.055.011 0 .011.01.011.033 0a.46.46 0 0 0 .253-.033v.011c-.022.033 0 .044.022.011.033-.033.044 0 .022.055 0 .022.01.022.022-.011-.011.022.01 0 .033-.022 0 .01-.011.033-.011.044h-.011a.148.148 0 0 1-.077.066c-.011.01-.011.033-.011.087v.011a1.17 1.17 0 0 0-.275-.11.933.933 0 0 0-.187-.043c-.055-.011-.11-.022-.154-.033.022-.011.044-.011.066-.022zm.572.285c.01 0 .022-.01.022-.022-.011.033-.033.055-.022.022zm.01.066c-.01-.022.034.01 0 0zm-.307-.033c-.022.01-.033.01-.033-.011v-.011h.022c0 .011.01.011.01.022zm-.44-.35c-.011-.012-.022.01-.033.043h-.033c0-.011.011-.033 0-.044-.011-.01-.011-.01 0-.01s.022-.012.022-.012c.022-.066.099.066.044.022zm-.066-.176c0 .01.011.01.011.01.011 0 .022.012.033.033.022.022.022.033.011.033-.011.011-.011.011-.022 0-.011-.022-.022-.01-.033.022 0 .022-.011.033-.011.044-.011.011-.022 0-.033-.022.022-.022.033-.044.033-.055a.083.083 0 0 0-.022-.043c-.01-.011-.01-.022-.01-.022a.034.034 0 0 1 .043 0zm-.066-.055c.011-.011.033.01.033.022-.01.01-.022.01-.033 0-.01-.011-.01-.011 0-.022zm.011.625v-.022c.011-.044.022-.033.022.022h-.022zm.066 0c.011-.033.033-.044.033 0-.011-.011-.022 0-.033 0zm.055-.066a.186.186 0 0 1-.055-.022.537.537 0 0 1-.12-.044c-.045 0-.067-.022-.067-.055.022-.01.088.011.11.033.044.022.099.033.143.055.022.011.044.011.055.011.022-.01.099.011.12.033.045.011.067-.011.056-.044.033.011.066.011.099.022 0 0 0 .011.01.011.023-.01.023-.01.012.011-.011.011-.022.011-.055.011-.044 0-.044 0 0 .022.022.01.132.022.143.01.01-.01.022-.01.044 0-.011.012-.011.023-.066.023 0 0-.066 0-.121-.011-.11-.011-.21-.044-.308-.066zm.308.11c.022 0 .044 0 .044.01-.011 0-.022-.01-.044-.01zm.022.68h-.022c.022-.011.033-.011.055-.022 0 .01-.022.033-.033.022zm.154-.187c-.011.022-.011.033-.011.033s-.011.022-.022.033c.01-.022.022-.044.033-.077 0 0 .01.011 0 .011zm0-.055c-.022-.01-.022-.022-.011-.033h.01c-.01 0-.01.011 0 .033zm.132.088c-.011.011-.022.011-.044 0-.011-.01.033-.044.055-.044.01 0 .022.011.022.022 0 .022 0 .022-.033.022zm.044-.22c-.011.012-.022.045-.011.056.01.01 0 .032-.022.043-.011 0-.022.011-.022.022-.011.022-.044.055-.055.044 0 0-.011-.01-.022 0 .022-.01.033-.022.033-.033 0-.022-.033-.054-.066-.054 0-.011 0-.011-.011-.022s-.011-.011-.033 0c-.011.01-.022.01-.033.01-.011-.021-.022-.043-.044-.065 0-.011-.011-.033-.011-.044.055-.011.099 0 .132.033.01 0 .022.01.033.033.033.01.055 0 .066-.011.033.01-.022-.044 0-.055.099-.11.099-.099.022-.11.01 0-.022.066-.033.066.01 0 .01.011 0 .011 0 .022-.011.022-.033.033V5.8c.022-.022-.121.022-.033-.033.066-.055.088-.088.066-.088 0 0-.022.011-.033.033-.022.022-.033.022-.055.011.033-.01.044-.022.055-.044 0 0-.011-.01-.011-.022-.011-.033-.055-.054-.121-.076 0-.011.01-.022.022-.022a.133.133 0 0 1 .11-.011c.022.01.033.022.022.044a.116.116 0 0 1-.022.054c.022-.022.055-.043.044-.01-.011.032.022.021.022-.012.01-.032.077.044.055-.01 0-.011-.011-.033-.022-.033l-.033-.033a.268.268 0 0 1-.088-.099h.088l-.033.033c0 .01.022.01.033 0 .01-.022.01-.022.022-.033h.055c0 .011-.011.022 0 .033.01.01.01.044 0 .055-.011.01.044.033.044.022.044-.022.044 0 0 .065-.044.044.033.154-.077.23zm.11-.24c.022-.011.033-.011 0 0 0 .021-.011.032-.011.021-.011-.01 0-.01.01-.022zm-.011.186c0-.033.022-.077.033-.077.022 0 .022.033.01.044.012-.011-.043.11-.043.033zm.12.066c-.01.01-.021 0-.021-.022-.011-.011-.011-.044-.011-.055.01-.055.022-.055.033.022v.055zm0-.351c-.01-.022-.032-.022-.032.01 0 .012-.011.023-.022.023-.011-.011-.022-.022-.011-.033v-.022l-.011-.011c-.022-.022-.033-.055-.022-.077 0-.022-.011-.01-.011 0 0-.01-.011-.022-.022-.022 0-.01 0-.01.01-.022.023-.076.023-.087.045-.087.01 0 .01 0 .01.021 0 .011-.01.033-.01.044-.011.022.033.121.033.143.022-.011.022-.033.01-.088a.379.379 0 0 0 .078.132h-.033s-.011 0-.011-.011zm.012.131v-.043c.01-.033.01-.033.033-.022.01.01.033.01.044.022.021.01.065.043.043.032h-.054c-.022-.01-.033 0-.044.022 0 0-.022 0-.022-.01zm.153.483c-.01.055-.033.088-.033.055 0-.011 0-.022.011-.022.011-.022.011-.055.022-.077.011 0 .011.011 0 .044zm.044.077s-.01-.011-.01-.022c0-.022 0-.022.01 0 .022.022.022.033 0 .022zm.088-.165c-.022.022-.033.011-.033 0V6.01s.055.022.033.033zm-.099-.22c0-.01.011-.021.022-.021.011-.011.011-.077.044-.066.011 0 .022 0 .033-.044.011-.044.011-.055 0-.087-.01-.033-.01-.033.011-.044.011-.022.022-.033.044-.022.022.022 0 .263-.01.274a.083.083 0 0 0-.023.044c-.01.01-.01.01-.022 0-.01-.011-.01-.011-.033 0-.01.01-.01.022-.01.033 0-.011-.034.131-.034.11.044-.22-.033.109-.044.01 0-.022 0-.044-.01-.066-.023-.032-.023-.01-.012.055v.055c0-.01-.01-.01 0-.022 0 0 0-.01-.01-.022-.012-.01-.012-.01-.012.044 0 .055-.01.088-.022.077v-.022c.011-.033-.01-.022-.021.01 0 .012-.011.023-.022.023s-.011.01 0 .022c.01 0 .142.022 0 .033l-.022-.022c-.033-.022-.033-.022-.022-.066.01-.022.01-.055.01-.066 0-.033.023-.066.056-.077.021 0 .021-.01.021-.022-.01-.021.022-.065.055-.087.011-.011.033-.022.033-.033zm-.077-1.392c-.01-.022-.01-.033.011-.044 0 0 .055-.055.066-.055.022-.01.022-.01.044.011.022.033 0-.043.077 0-.022-.01.011-.021.044-.01.033.01.033.021.011.032-.01 0-.022.011-.033.011-.01.011-.01.011-.033 0-.022 0-.033.011-.022.033-.01.011-.088.022-.11.033-.01.011-.044 0-.055-.01zm.1.263c-.012.022-.034.022-.045 0 0-.01.044-.033.044-.022v.022zm.021-.153h-.033s-.01 0-.01-.011c0-.022.021-.066.021-.044 0 .011 0 .011.011 0 .033-.044.044.055.044.055.022 0 .033.01.033.033 0 .022 0 .033-.01.044.01-.011-.034.054-.034.022.011-.022.011-.044.011-.066 0-.022-.01-.022-.033-.033zm.066.23c-.01.011-.01.011-.033 0-.022-.01-.01-.022.022-.022.022 0 .022 0 .011.022zm.132.143c-.12-.088-.12-.088-.11-.12.011-.023.033-.023.022 0-.01.021 0 .021.033 0 .022-.012.022-.012.033.01.033.066-.033-.01-.033.022 0 .022.033.055.088.066.044.022.055.022.044.044-.022.022-.033.01-.077-.022zm.154.362c0-.033.011-.022.022.021 0 .022-.022 0-.022-.021zm.033-.033c-.01-.022-.022-.033-.022-.044 0-.022-.022-.055-.044-.077-.044 0-.044-.01-.044-.044 0-.033 0-.033.022-.033h.033c.011 0 .022.011.022.033.011.022.011.033.022.044 0 0 .011.022.011.044 0 .01.044.164 0 .077zm.077-.077c0 .01-.01.01-.01 0 .01-.022.021-.011.01 0zm.033.669c.033.01 0 .01 0 0zm0-.735c-.01-.022-.022-.033-.022-.055-.01-.01-.01-.01 0-.01.022-.045.011-.077-.033-.121.011 0-.01-.044-.022-.11-.01-.033-.01-.077-.022-.11.022.033.055.055.088.077 0 .022.011.033.011.044.011.033.022.055.022.088.011.01.011.044.011.076 0 .044.011.066.011.077.011.011.011.022.011.033-.01.022-.022.022-.055.011zm.066-1.382c-.01-.01-.022-.022-.044-.032-.044-.022-.033-.033.022-.033h.055c.022 0 .044 0 .055.01.022.044.033.055 0 .044 0-.021-.01-.021-.033-.021-.033-.011 0 .098-.055.032zm-.099-.12c-.022-.033-.01-.033.044-.011.044.01.066.033.044.044 0-.011-.01-.011-.022-.011h-.033c-.01 0-.022-.011-.033-.022zm.143 1.47c-.022 0-.033-.078-.022-.089.088.044.1.077.022.088zm.055-1.317c0 .022 0 .011 0 0zm.121-.153h-.033c-.01-.011-.033-.011-.033-.011-.01-.011-.044-.022-.12-.055-.056-.022-.067-.033-.023-.033.044 0 .044-.01-.01-.022h-.023c-.01 0-.044-.022-.077-.033-.044-.022-.077-.044-.066-.055 0 0 .022 0 .044.011.11.022.11.011-.01-.022-.177-.065-.199-.087-.045-.054a.7.7 0 0 1 .198.065c-.033.011-.033.022 0 .033a.759.759 0 0 1 .088.033c.033.033.033.044-.01.033-.045-.01-.034 0 .032.022.033.022.066.044.077.066.022.01.022.022.011.022zm-.396-.395c.033.033.022.044-.033.022-.099.01-.088.022.011.033.154.044.165.055.033.033-.01 0-.033-.011-.055-.011-.066-.011-.077-.011-.077-.033v-.033c-.077-.099.121 0 .121-.011zm.264.197c.022-.022.11.033.099.055.011-.01.121.176-.01.055-.012-.01-.023-.022-.023-.033 0-.01 0-.01-.01-.022-.023-.01-.067-.044-.056-.055zm.143.165c.044 0 .011.033 0 0zm.033 1.414c-.011-.01-.011-.021 0 0zm.011-1.228c-.022.022-.033 0-.022-.044.022-.065.033-.043.022.044zm-.022-.11c-.011-.01-.011-.021 0-.032.011 0 .077.022.077.033 0 .01-.066 0-.077 0zm.187-.032c.022.022.01.033-.011.022-.022-.011-.033 0-.033.022-.011.022-.022.022-.033 0 0-.033.022-.044-.022-.077 0-.077.033-.066.099.033zm-.143-.11c-.033-.01-.044-.044-.011-.033.099.033.099.044.011.033zm0-.066c-.011.011-.055-.01-.066-.033-.022-.022-.011-.032.022-.022.022.022.055.044.044.055zm-.044-.076c-.011.01-.033 0-.055-.011-.011-.055 0-.055.055.01zm-.176-.187c.011-.022.022-.01.044.011.011.011.033.044.044.055.033.044.033.055-.022.033-.033-.022-.044-.033-.044-.055 0-.011 0-.022-.01-.022-.012-.01-.023-.022-.012-.022zm-.198-.307c.011-.01.022 0 .033.011.011.022.022.044.044.055.011.01.022.044.033.055a.73.73 0 0 1 .066.131c-.01.022-.022.022-.077-.01a.342.342 0 0 1-.066-.045c-.022-.021-.033-.021-.022-.032.011-.011.011-.011-.01-.033-.012-.033-.034-.055-.045-.088-.022-.022-.099-.077-.01-.044.032.011.043.011.054 0zm-.253-.066c-.01-.022-.01-.022.066 0 .044.011.055.022.055.033.011.011.011.022.011.033 0 .011 0 .022.022.044.044.055.022.066-.044.033-.033-.033-.022-.055.011-.055a.17.17 0 0 1-.12-.088zm.022.22c-.01 0-.022-.011-.044-.022l-.033-.022.022.01c0-.021-.01-.032-.044-.032-.088-.066-.132-.11.033-.044.044.022.154.11.066.088.022.01.022.033 0 .022zm-.23-.318c.01 0 .021.01.032.01-.077-.01-.186-.043-.033-.01zm-.078-.121s.011-.011.033-.011c.011.011 0 .022.011.044-.033-.022-.033 0-.044-.033zm.055.044s.011 0 .022.01c0 0-.01 0-.022-.01zm-.044.099c.011-.011.011-.011.044 0 .011.01.055.01.088.021.044 0 .066.011.077.033.022.044.022.055-.01.044 0-.01-.056-.022-.122-.033a.18.18 0 0 1-.066-.033c-.022-.01-.022-.022-.01-.032zm.32 0c.142.065.021.054-.034.043a.177.177 0 0 1-.077-.043l-.022-.033h.077l-.055-.022c-.055-.011-.088-.044-.077-.055.011-.011.143.044.176.055l.033.022h-.077l.055.033zm-.22.076c.01.011.043.011.065.022.154.055.176.077.066.077-.033-.011-.066-.011-.066-.022a.204.204 0 0 0-.077-.022c-.099-.055-.099-.066.011-.055zm-.133-.734c-.021.01-.021.01-.032 0-.011-.033.021-.044.054-.022.022.01.022.01.011.01-.01 0-.022 0-.033.012zm.165.252c.022-.011.011-.022-.033-.033-.033-.011-.088-.055-.077-.066 0 0 .011-.01.022-.01.022 0 .022 0 0-.012a.083.083 0 0 0-.044-.022c-.033-.01-.022-.033.033-.033.044 0 .066.011.088.044.022.033.022.033-.01.022h-.023l.033.022c.011.011.044.022.055.033.011 0 .033.022.044.044a.29.29 0 0 0 .055.066c.022.022.066.098.1.153 0 .011.021.044.054.088.022.044.044.088.033.099.022.043.011.054-.033.043-.01 0-.022-.022-.033-.032l-.022-.033h.022c.022 0 .022 0-.01-.011-.023-.011-.045-.022-.056-.033-.022-.022-.022-.022-.01-.033a.114.114 0 0 0-.078-.11c0-.022-.165-.175-.11-.186zm-.197.066c0-.044.021-.044.054-.011 0 .033.022.043.077.054.1.033.121.044.132.066.011.022.011.022 0 .033-.01 0 0 .011.022.022.088.066.1.099.022.077-.044-.022-.099-.033-.143-.055-.01 0-.033-.022-.044-.033-.01-.022-.022-.022-.01-.033.021-.022 0-.033-.034-.033-.044-.033-.065-.055-.076-.087zm-.242.307c-.055-.022-.044-.033.055-.022.143.01.208.022.22.044.01.01.01.021-.012.032l-.021.011.021.022c.011.011.022.022.011.033-.01.011-.043.011-.076 0h-.033c-.011 0-.044-.01-.088-.01-.33-.056.143-.067-.077-.11zm.12.427c-.01-.01-.021-.033-.032-.044-.011-.022-.132-.263-.022-.252.12.011.208.022.208.044 0 .011 0 .011-.021 0 .021.011.142.099.164.099.022 0 .066.033.044.044a.177.177 0 0 0 .077.043.086.086 0 0 0 .044.044c.011 0 .033.011.033.022.088.022.11.022.066-.01-.01-.012-.022-.023-.01-.034-.012-.022 0-.032.032-.032h.022c-.022-.011-.01-.022.011-.011.011 0 .033.01.033.021 0 .011.022.022.033.033l.022.022-.033-.01c-.01 0-.044-.012-.055-.012h-.033l.033.022c.022.011.044.022.066.022.044 0 .077.022.1.033l-.023-.01c-.033-.012-.044-.012-.044 0 0 .01.022.01.033.01h.033a.034.034 0 0 1 .011.022c.033.011.055.044.077.066h-.033c-.01-.011-.044-.011-.066-.022.011.01.044.01.055.022.1.01.121.044.088.077 0-.011-.01-.011-.01 0a.177.177 0 0 0 .076.044c0 .01 0 .01-.022.01a.11.11 0 0 1-.033-.01c-.022-.011-.044-.033-.066-.044.022 0 .022 0 .022-.011s-.01-.011-.033-.011h-.022a.083.083 0 0 0-.044-.022c-.033-.011-.066-.044-.055-.055-.055-.011-.099-.033-.077-.044 0 0 .022-.01.033-.01.022 0 .022 0-.01-.023-.034 0-.067 0-.1.011h-.055c-.01.011-.022.011-.044 0h-.033c.055.022.033.022-.055 0-.01 0-.01-.01-.022-.01h-.01c-.023 0-.056-.012-.067-.012-.033-.01-.055.033.022.044.022.011.044.011.044.022s.055.022.077.033c.033 0 .044.022.044.044-.01.01-.01.01 0 .01.011 0 .033.012.044.023.033.022.033.022.033.055-.01.032 0 .032.011.021.011 0 .044.011.077.033.066.044.055.044.121.077.033.022.044.033.044.033-.01.022.165.077.187.066 0 0 .011.01.022.01.033 0 .044.023.033.045-.011.01-.022.01-.044 0-.044-.044-.165-.088-.23-.121-.034-.022-.078-.033-.11-.055-.012-.01-.034-.022-.056-.033-.022-.022-.055-.033-.077-.055-.022 0-.088-.043-.077-.054h.033c.11.033-.264-.066-.198-.055a1.387 1.387 0 0 1-.11-.033s0-.099-.043-.033c-.011.022-.055.01-.077-.022l-.022-.044-.033-.033zm.528.318-.066-.022c-.044-.01-.055-.01-.066-.022-.01-.021-.088-.043-.12-.032-.012 0-.11-.033-.122-.055-.01-.022.044-.011.088.01.022.012.066.023.088.034.055.01.176.054.198.087zm-.406.132s-.11-.12 0-.066h.032c.011 0 .011-.01-.01-.01a.217.217 0 0 1-.121-.067c-.011-.022-.011-.054-.022-.076-.022.01-.033-.022-.033-.055a.06.06 0 0 1 .055-.033c.066-.011.12.01.088.044.153.055.23.12.384.153.044.011.1.022.121.033.044.011.088.033.11.066 0 .01-.01.01-.022 0-.01-.011-.033-.011-.044-.011a1.505 1.505 0 0 0-.286-.088c-.088-.01-.143-.033-.241-.055-.077-.01-.066 0 .021.033a.621.621 0 0 1 .132.044.9.9 0 0 1 .187.055c.044.011.088.022.11.033.022 0 .033.01.022.022-.01.022.044.01.044.01 0 .012.011.023.033.023.044.022.033.044-.033.033-.055-.022-.077-.033-.187-.044-.077-.011-.143-.022-.176-.022s-.044.01-.033.01a.65.65 0 0 0 .154.023c.055.01.121.022.176.044a.324.324 0 0 1 .176.11c.022 0 .033.01.022.021-.01.011-.01.011-.022 0-.01-.01-.033-.01-.055-.022-.055-.01-.11-.033-.165-.055-.01 0-.12-.043-.132-.043-.044-.022-.088-.033-.132-.055a.239.239 0 0 1-.153-.055zm.043.066c.066.01.066.022 0 0zm-.208.098a.98.98 0 0 0 .208.033c.033-.01.033-.01.11.055.11.088.11.033.176.077.022.01.022.01 0 .022-.022.01.088.088.033.077-.022 0-.033-.011-.044-.011a.965.965 0 0 0-.176-.022c-.01 0-.044-.011-.066-.011-.065-.011-.12-.011-.186-.022h-.044c.055.01.099.01.154.022.021 0 .087.01.12.022.1.01.11.022.077.054a.118.118 0 0 1-.12.011c-.396-.032-.154-.054-.242-.11-.121 0-.165-.043-.132-.142a.334.334 0 0 1 .077-.055c.01-.01.022-.01.055 0zm-.935-.142c-.01-.011-.01-.022-.01-.033 0-.022 0-.022.065-.044a.97.97 0 0 0 .165-.055.248.248 0 0 1 .198.022c.01 0 .022.011.033.022.01.022-.011.033-.077.055-.066 0-.077.01-.044.01.01 0 .044-.01.077-.01s.066-.011.066-.022c.022-.022.055-.011.12.022.067.033.22.132.232.142.022.022-.077.077-.1.055 0 0-.021-.01-.032-.01-.055-.012-.121-.023-.176-.045 0 0-.308-.043-.264-.076.01-.033 0-.033-.022-.011-.011.01-.022.01-.11.01-.055.012-.099 0-.12-.032zm.066.066c-.011-.011.044-.033.077-.011.011 0 .044.01.055.01.022 0 .044.012.066.012a.186.186 0 0 0 .055.022c.01 0 .044.01.066.01a.56.56 0 0 0 .187.033c.01 0 .033 0 .11.022.044.011.055.033.044.077 0 .033.01.033-.143.033h-.077a.578.578 0 0 1-.187-.022c-.099-.044-.231-.143-.253-.186zm.066.274c.011-.011.11-.011.33-.022.077 0 .165-.011.198-.011.11 0 .176.022.187.099-.011.032-.033.043-.066.054 0 .011-.055.022-.165.022-.044 0-.077 0-.077.011-.011.011-.154 0-.154 0 0-.01.044-.01.132-.022.033 0 .077 0 .099-.01.066 0 .099-.012.132-.012-.011 0-.033-.01-.055-.01-.066 0-.132 0-.143.01-.011 0-.055.011-.11.011-.154.022-.187.022-.21.033-.01 0-.021.011-.032 0-.011 0-.033-.01-.055-.01-.022-.012-.055-.012-.066-.012a.083.083 0 0 1-.044-.022c-.022-.01-.044-.022-.055-.032-.022-.022-.066-.033-.099-.055.066 0 .176-.011.253-.022zm1.176 1.864c0-.066-.033.01-.01.022.01 0 .01 0 .01-.022zm-.56-1.755h.044-.044zm.297-1.59c-.088-.01-.1-.01-.033.011.033 0 .044 0 .033-.01zm.66.768c0 .01.01.01.021.01h.022-.01c-.012-.01-.034-.01-.034-.01zm-.737 2.27c-.011 0-.011.01-.022.01.01.012.01 0 .022-.01zm2.385-1.294c0 .022 0 .022.011.01 0-.01 0-.021-.01-.01zm-2.363-2.062c0-.01-.044-.022-.055-.01-.011 0 0 0 .033.01h.022zm-.32 3.487v-.032c-.01.01-.01.022 0 .032zm.495-2.072v.01c.011.012.055.012.055 0 0-.01-.044-.021-.055-.01zm-.175-.241h.01c0-.011-.01-.011-.01 0zm.307-.296s-.01-.011-.022-.011c-.022-.011-.044 0-.033.01.022.012.044.012.055 0zm-.604 2.982c0 .011.01.011.01 0-.01-.01-.01 0-.01 0zm.648-2.84h.077s-.01 0-.01-.01c-.056 0-.078 0-.067.01zm.055.12c.033-.021.022-.021-.044-.021h-.055a.322.322 0 0 0 .1.022zm-.099-.076c0-.01-.022-.01-.033-.01-.022 0-.022 0-.01.01.021.011.043.011.043 0zm50.003 22.535c.23-.384.308-.746.066-1.097-.11.011-.187-.01-.242-.055-.209.45.011.691-.01 1.053.065.033.109.077.186.099zm.011.296a.696.696 0 0 0-.704.68c0 .384.308.702.682.702a.696.696 0 0 0 .704-.68.696.696 0 0 0-.682-.702zm-2.21.329c-.044.131.077.362.022.493.407 0 1.045.209 1.21-.219-.132-.285-.836-.197-1.232-.274zm1.913 2.292c.176.076.209.296.418.34.11-.275.319-.779.066-1.01-.407-.142-.33.407-.484.67zm1.32-2.183c-.067.637.516.297.846.395-.033-.186.253-.044.198-.241-.275-.439-.594-.154-1.045-.154zM80.136 1.24c.022.021-.011-.023 0 0zm.066.175c.12.022.11-.1.11-.209h-.1c-.054.11-.01.077-.01.209zm.538-.154h-.066v.066h.066V1.26zm-.198.208c.121.033.132-.164 0-.142v.142zm.132-.065c.143.033.011-.11 0 0zm-.55.11c-.01-.012.023.032 0 0zm-.164 5.833c-.011.022 0 .011 0 0zm3.683 9.54c.033.23.055.45.088.67 0-.21-.011-.428-.033-.604-.033-.022-.044-.055-.055-.066zM80.324 1.7c0-.011-.011-.022-.011-.022 0 .01.01.01.01.022zm10.17 8.367c-.43-.922-3.662-.713-4.596-.066.604-1.086 1.242-2.139 2.309-2.709.241.176.494.154.527.549.187-.077.165.076.341.087.055-.098.099-.208.209-.241.11.044.143.154.198.252.45-.066.143-.57.308-.877.143.504.967.35.857-.175.242-.044.286-.297.418-.373-.154-.022-.066-.318-.165-.439-.165-.077-.363-.12-.539-.197.33-.439.275-.965-.197-1.174.23-.35-.198-.526-.451-.625.385-.153.692-.559.374-1.009-.187-.01-.275.11-.451.121.066-.197.055-.471-.044-.603-.154-.077-.242.077-.407-.011-.132.208-.132.57-.396.625-.099-.208-.297-.329-.527-.417-.044-.11.021-.153.01-.318-.043-.055-.164-.022-.164-.11.285-.58-.462-.57-.715-.613-.011-.011-.022-.011-.033-.022l-.011.01a.889.889 0 0 0-.605-.11c.033-.273-.176-.328-.253-.503-.241-.033-.44.032-.648-.066-.077-.077.033-.12.01-.252-.153 0-.22.098-.406.054.066-.153.209-.208.22-.416-.374-.362-.869-.198-1.32-.088a1.104 1.104 0 0 0-.131-.252c-.198.131-.484.022-.715.142-.077-.098-.209-.142-.297-.23-.176.077-.407.022-.583.044-.088.077.022.197-.044.241-.143-.077-.154-.285-.362-.296a.536.536 0 0 0-.286.274c-.022.198.088.274.154.395-.165.066-.363.11-.528.186-.011 0-.011.011-.022.011 0 .011 0 .011.01.011l-.01.011c0-.01-.011-.01-.011-.022a.685.685 0 0 0-.23.165c0-.055 0-.12.01-.176-.165-.022-.099.242-.242.242 0 .032-.033.043-.033.065.044.044.121.055.165.011.033.143-.11.099-.077.242-.01.098.187-.022.132.11-.077.076-.11-.067-.23-.045-.045.088.065.176-.012.176-.077.099-.297.077-.264-.12.077.164.055.032.231.043.011-.11-.033-.164-.055-.241h.066c-.01-.044-.055-.033-.066 0v-.011c-.033 0-.044-.033-.066-.033-.055.208-.363.186-.22.417-.099-.022-.296.153-.307-.011h-.011l-.011-.011s0-.011.01-.011c0 0 .012.01.012.022.077.01.131 0 .175-.033.011-.263-.153-.22.011-.395-.22.066-.23.285-.428.439-.077-.033-.187-.033-.198-.11-.044-.033-.11-.055-.1-.143.056 0 .034-.087.1-.065.23-.11.154-.384.528-.373 0-.12-.033-.198-.132-.22-.088.23-.231.176-.385.34.044-.274-.264-.219-.286-.438.297-.165.967-.252.835.35.264-.01.363-.043.616.023.011-.033.033-.033.033-.066-.088-.055-.099-.176-.165-.252-.154-.033-.077.186-.209.164-.033-.033-.077-.044-.132-.044.044-.164-.088-.142-.055-.285.275-.142.792.022 1 .263.012 0 .023-.01.034-.01.022-.11-.264-.352-.275-.428-.814-.253-.088 0-1.737.142-.088.077-.022.187-.077.242-.154-.011-.22-.11-.407-.088-.143.197-.352.318-.429.581.077.318.517.384.693.493-.22.11-.495.165-.528.472.121.077.121.153.121.285.143.011.231.077.264.186-.11.165-.198.132-.385.198-.055.11.11.252-.044.241.121-.395-.362-.548-.703-.384.022-.12.099-.175.077-.35-.143-.055-.22-.176-.44-.165-.132.088-.198.241-.319.34-.187-.22-.473-.033-.748-.099-.055.176-.241.198-.483.154-.033.175-.242.142-.22.383-.374.011-.506.406-.429.724.077.066.242.044.297.12-.055.1-.132.165-.176.275.077.274.418.307.66.417-.187.076-.385.164-.418.405.077.165.12.362.154.57.253.154.527.23.813.1 1 .361 1.54 1.776 2.001 2.642-.461-.23-2.1-.263-2.748-.274.472.888 2.353.757 3.309.965 1.33 1.13 2.023 2.873 2.903 4.441-.132-.044-.11.099-.242.066-.22-.11-.43-.57-.737-.274-.187-.274-1-.56-1.1-.505-1.154-.69-2.583-1.513-4.012.242 1.275-.176 2.627-.22 4.232.285v.01c.033.012.044.012.055 0 .077.023.297.11.297.11a.76.76 0 0 1 .11.044c-.01 0-.01.011-.022.011.088.033.176.055.264.088.847.395 1.462.998 1.605 1.897-.088-.12-.088-.318-.264-.362-.033.384.341.603.32.866-.232-.701-1.276-1.962-1.98-.965.495 0 .902.11 1.232.307h-.011.01c.462.275.77.713.968 1.196a10.656 10.656 0 0 0-.132-.823l.638.34v.044l-.627-.34c.055.274.1.548.132.823.066.153.11.318.154.482a5.921 5.921 0 0 0-.154-.471c.341 2.555.066 5.318-.165 6.645l1.232-.033c.252-.143.033-2.314-.374-5.56 0 .176-.011.33-.044.472l-.011-.011c.033-.143.044-.307.044-.483a8.109 8.109 0 0 0-.077-.658c0-.043-.011-.087-.011-.131 0 .033.01.066.01.098.023.022.034.044.056.055-.022-.263-.055-.46-.044-.46.022-.033.308-1.48 3.375-1.744-.01-.077-.044-1.173-2.298.505.055-.176.165-.275.154-.527-.385.274-.582.779-1.055.954.055-.416.363-.559.44-.943-.352.055-.451.395-.671.614.055-.24.44-2.708.374-2.566 3.254-3.97 3.221-2.599 6.53-2.664zm-9.28-8.905c.011-.01.011-.01 0-.01 0 0 0 .01-.022.021 0-.022.011-.022.022-.022s.011.011 0 .011zm4.794 13.433c.044 0 .022.055 0 0-.044 0-.022-.054 0 0zm.725-7.917c-.264 0-.352-.252-.253-.504.055.066.242.066.242-.066a.14.14 0 0 0 .1.044c.01-.088 0-.154-.1-.143-.044.011-.033.066 0 .066v.033c-.055 0-.11 0-.165-.011.066-.318.605-.296.781-.099-.011-.033 0-.065-.033-.076.077-.22.198-.395.429-.44.11.078.165.21.187.363-.1.186-.165.395-.418.406.022-.154-.011-.264-.165-.253-.022.11.033.209-.011.428.044 0 .022.055 0 0-.121.055.077.055.033.143-.143-.1-.132.043-.176.131-.187.011-.264-.099-.34.022-.056-.01-.034-.088-.034-.143-.066-.01-.077.033-.077.1zm-5.09-.022c-.077-.526.418-.932.901-.636.22.33-.033.8-.34.877-.121-.186-.407-.065-.561-.24zm.418.691c-.231-.066-.297-.285-.352-.515.088.033.319.24.374.087.154.088-.033.286-.022.428zM79.598 4.2a.503.503 0 0 0 .264.329c-.242.23-.682.406-1.1.241-.01-.099.011-.22-.066-.22.22-.208.462-.383.902-.35zm-1.133.088c.143-.055.32-.077.484-.121-.044.186-.352.164-.484.12zm1.309-.549c.01-.065.154 0 .11-.142.374-.12.582-.11.88-.033a.28.28 0 0 1 .032.175c.242-.065.198.242.088.395h-.033V4.2c-.055.033-.11.044-.11.142-.198-.032-.264.077-.373.132-.132-.088-.231-.23-.44-.164.132-.1 0-.253-.198-.22-.022-.153.066-.175.143-.208-.033-.044-.033-.132-.1-.143zm.945 1.24c.011.526-.286.537-.626.504-.726-.68.297-1.162.626-.505zm-.198-.395c.231-.176.55-.46.924-.242-.022.11.022.165.022.253-.209.197-.737.263-.946-.011zm2.144-3.06c.154.055.242.033.341-.055.231.066.286.307.319.57-.165-.043-.319.023-.462-.054-.055.01-.077.055-.077.142.077.1.407-.054.374.154.132.044.165-.033.209-.099.077.033.099.187.23.252.067 0 .11-.022.144-.065.088.01 0 .12 0 .142.033 0 .044.066 0 .066-.011.066-.11.022-.11.099-.022.131.209.022.23.12.045 0 .023.055 0 0-.131-.033-.12.077-.208.099 0 .066.088.044.066.143-.1-.033-.198.142-.143.175 0 .055-.22.066-.165-.044.099.011.077-.088.165-.099-.011-.032-.033-.032-.033-.076-.022-.066-.187-.022-.209 0-.033.11.055.11.066.175-.066-.01-.088-.066-.187-.044-.044.143.088.099.132.143-.066.131-.132-.077-.242.066 0 .043-.055.022 0 0 .1-.11-.132-.077-.022-.22-.165-.022-.132.198-.242.242-.12-.011-.12-.132-.264-.121.022-.154-.143-.132-.23-.187.043-.164-.165-.296.076-.285-.033-.087-.208-.01-.153-.23.11-.022.099.066.197.044.077.01.044-.099.11-.099a.196.196 0 0 0-.099-.11c.088-.032.154-.098.242-.131-.088.11.022.263.088.318-.01-.11.341-.143.253-.34-.12-.033-.088.12-.143.176-.077-.066-.033-.154-.132-.253a.24.24 0 0 1-.099-.076.214.214 0 0 0-.143.131c-.252-.055-.252-.318-.186-.537.153.066.263.022.307-.132zm-.253-.23c.088.088.165-.033.308.01-.055.11-.11.22-.242.242-.01-.099-.066-.153-.066-.252zm3.068.724c-.077.087-.055.164-.077.241-.539.186-.55-.417-.825-.603.33-.088.561.263.902.362zm-.759-.636c.066 0 .132 0 .21.01 0 .055 0 .121-.012.176-.066-.055-.253 0-.198-.186zm2.034.976c-.01.087.044.12.121.11-.066.098-.099.054-.198.087.033-.12-.066-.11-.099-.175a.196.196 0 0 0-.11.098c-.022.11.077.099.132.143.011-.011.022-.033.044-.022 0 .022-.01.033-.033.022-.01.055-.055.055-.077.099.32.142.627-.088.847.263-.033.219-.23.252-.352.373-.165-.044-.286-.143-.506-.132-.132-.12-.23-.428-.044-.57-.033-.044-.099-.066-.066-.176-.12.055-.252.044-.241.165-.066-.099-.077-.241-.198-.296-.11-.011-.121.087-.143.175-.077-.033-.088-.142-.231-.12-.011-.143.143-.242.01-.318.364-.45 1.023-.209 1.331-.055.022.065.055.131.055.219.077.055-.01.22-.099.208.044-.054.066-.12.1-.197-.122-.011-.199.01-.243.099zm-.077.208c0 .022-.01.033-.033.022 0-.022.011-.033.033-.022zm1.584 3.147c.12.033.076.165.263.187-.088.186-.252.175-.483.12-.033-.296-.077-.559-.286-.68.209-.57.758-.208.88.209.01.12-.122.087-.11.208-.034-.044-.122-.01-.1-.11-.066 0-.099.055-.164.066zm-.418.483c.077 0 .099.065.198.044-.033.197.143.24.055.394a.832.832 0 0 1-.253-.438zm.143.712c-.264 0-.385-.131-.54-.23.034-.175.078-.34.287-.307.033.23.198.34.253.537zm.604-1.787c-.077.044-.198-.164-.33-.186.1-.143.253-.209.286-.417.187.099-.088.45.044.603zm-.978-.175c.099-.242-.033-.286-.121-.428.165-.263.88-.45.956 0-.154.263-.516.592-.835.428zm.055.427c-.044-.01-.066 0-.066.033-.121-.022-.044-.208-.022-.285.055 0 .11 0 .165.011-.044.055-.1.11-.077.241zm-.154-.329c-.165-.055-.363-.186-.539-.131.011.164.242.131.407.153.22.22-.022.527-.132.702a.663.663 0 0 0-.34-.044c-.144-.197-.177-.581-.045-.778-.077-.088-.132.065-.176.131-.11-.066-.187-.022-.308-.01.077-.56.825-.746 1.166-.308-.044.132-.077.132-.033.285zm-.957.921c-.154-.175-.22-.427-.417-.548.132-.099.197-.23.483-.23.066.175.1.384.154.57-.165-.022-.23.044-.22.208zm-.538-1.008c0 .043-.055.021 0 0v-.143c-.066-.077-.143-.011-.176.066 0 .066.022.088.066.11-.066.131-.198.153-.341.087-.011-.12.187 0 .176-.208-.143.01-.187.131-.341.131.033-.142-.209-.131-.088-.252-.077.044-.23.033-.34.022-.023-.153.241 0 .274-.099.022-.11-.066-.12-.165-.11-.01-.12.165-.032.11-.208.143.132.165-.131.209-.24.044.01.055.043.099 0 0-.045.055-.023 0 0-.011.076 0 .13.066.142-.011.055.033.066.033.11.066.021.055-.165-.033-.11a.678.678 0 0 0 .077-.209c.165-.01.176.121.23.22.067-.033.166-.033.144-.176.143 0 .242.044.34.088-.054.055-.208-.055-.208.132.186.043.241-.143.307.043.011.11-.088.1-.143.132 0 .11.066.154.198.154-.066.054-.34.065-.44.054-.054.011-.054.066-.054.121.088.011.077.143 0 .143zm-2.672.625c-.088.022-.132.087-.242.098-.033.11.055.11.022.22-.055-.132-.11-.088-.264-.077-.044.055-.12.066-.209.066 0-.1-.077-.154-.022-.285 0-.088-.12-.066-.165-.11v.066c.154.022-.044.164.055.219-.022.11-.066-.033-.132-.011.033-.066.1-.088.077-.208-.098-.088-.252.054-.175.175-.143-.077-.088-.241-.022-.35 0-.154-.165-.176-.231-.078 0 .066.022.121.066.143-.011.055-.088.033-.132.033 0-.154.066-.197.01-.318.034 0 .045-.022.056-.033.022.033.12 0 .165.022.022-.099-.066-.132-.121-.088.022-.077.099-.088.176-.098 0 .065 0 .11.033.142.044-.033.131-.033.142-.099-.12-.065.011-.087.088-.131v.077c.077.01.121-.011.165-.033 0-.066-.066-.077-.12-.077.032-.044.11-.055.186-.044-.01.165.1-.01.198.044-.253.12.187.384.132.044.077-.011.066.066.165.044 0 .054-.088.022-.077.098.033.022.121.088.099-.033.11.077-.066.143-.11.176 0 .066-.033.088-.077.099-.022.043-.077.065-.143.065-.022.088.055.077.022.176.121-.099.286-.209.418-.373-.044 0-.022-.055 0 0 .088.055-.011.208-.077.208.022.066.066.12.044.23zm-1.231.022v.065h-.066v-.065h.066zm-.066-.494c0-.01.01-.01.01-.01s0 .01-.01.01zm.45-.735c-.274-.307-.022-.603.1-.92.164.043.23-.023.34.087.429-.362.56.69.21.855-.089-.131-.188 0-.276.066-.132-.055-.198-.153-.374-.088zm.836.538c-.077-.242-.34-.088-.429-.296.33.065.374-.187.528-.406.12.066.176.131.34.088-.032.12.045.12.133.11-.077.295-.407.306-.572.504zm.649-2.139c.275-.208.945-.329.912.253-.088.394-.714.383-1.022.098.077-.131.176-.131.11-.35zm.835-.537c.011.132-.077.165-.11.241-.253-.098-.472.12-.714.143.242-.23.319-.647.67-.757-.066.132.121.252.154.373zm1.452 1.338c-.308-.088-.32-.636-.737-.417-.088-.57.44-.428.726-.395-.055.351.34.604.01.812zm-1.232.307c-.088-.044-.11-.143-.23-.154.164-.307.076-.482.197-.811.22.044.308-.066.484-.088-.044.099-.088.176-.044.285-.352-.01-.528.296-.407.768zm.077-.494c.11-.076.209-.032.308-.164.099.143.23.022.374.01.099.21.297.308.319.582-.22.23-.605-.01-.825.176-.12-.132-.23-.275-.176-.604zm.077.713c-.077.011-.044-.066-.099-.077.022-.087.132 0 .1.077zm-.385-1.579c.11-.34.385.022.583-.153.143-.011.055.197.23.153-.098.318-.714.362-.813 0zm-.945-.066c0-.329.22-.723.571-.79-.066.396-.241.67-.571.79zm.77 1.272c-.11-.033-.133-.142-.166-.252.143.011.264.011.308-.099.088.121-.088.253-.143.351zm-.133.022c-.066.198-.33.198-.384.406-.495-.01-.704-.296-.715-.779.407-.186.913-.021 1.1.373zm-.175.954c.054.088-.055.264.164.253.022.153-.033.23.055.361-.176.406-.516.307-.99.242-.164-.582.133-1.031.77-.856zm-.22-.329c.176-.022.384-.427.593-.405.242-.417.528.45.143.68-.363.021-.527-.154-.736-.275zm.868.395c-.066.176.11.099.1.22-.1.153-.309.175-.419.306-.01-.23-.01-.307-.088-.504.176 0 .32-.01.407-.022zm2.221-.34c-.22-.01-.44-.033-.583.044-.088-.175-.176-.362-.286-.504.231-.121.385-.176.76-.187.054.077.032.22.197.187-.088.175.099.329-.088.46zm-.869.428c0 .12-.175.044-.175.175-.088-.087.044-.219.175-.175zm1.144-.647c.022 0 .044 0 .066.022a.157.157 0 0 0-.066-.022zm.759-.198c-.231.253-.748.275-.88-.11.055-.197.12-.164.044-.383.154.022.22-.044.209-.208.077 0 .154.01.242.01.077.209.132.45.396.483-.033.099-.055.165-.011.208zm-.352-.8c-.264-.099-.385.175-.583.263 0 .099-.011.187-.011.285-.319-.219-.968.077-1.165.198.066-.066.066-.198.11-.274.197.021.285-.1.285-.308.242-.021.352.066.506.132.176-.099.33-.22.45-.373.144 0 .33.044.375-.055.055.011.033.088.033.132zm-2.859-1.744c.297-.208.682-.131.803.318-.308.253-.67-.01-.803-.318zm-.89.209c-.1-.165-.176-.362-.253-.538.055.011.066-.021.066-.065.253.11.505.219.703.383-.143.077-.417 0-.516.22zm-.396.526c-.088-.12-.22.011-.264-.153-.066-.033-.121.098-.132-.011.176-.143-.033-.384-.022-.56.253-.076.385.033.45-.164.287.153.276.768-.032.888zm-.473-.778c-.12-.044-.297-.187-.374-.011 0-.296.539-.494.825-.22-.11.198-.341.066-.45.23zm-.967.219c-.21-.176-.55-.011-.704-.241.242-.011.56-.11.748.033.022.11-.044.131-.044.208zm-.077.318c-.286-.099-.825.077-.803-.351.275.055.814-.088.803.35zm.132.208c.01.198-.132.252-.187.384-.242-.143-.528-.055-.814-.143.044-.065.044-.164.077-.24.187-.078.67-.264.924 0zm.197 1.152c-.044.515-.45.592-.934.526-.022-.186-.154-.263-.187-.439.495.022.693-.416 1.121-.087zm-.747.855c.363-.154.495-.11.572.307.175.033.318.077.395.197-.461-.054-1.187.604-1.21-.296.1-.055.265-.022.243-.208zm.033 1.097c-.154-.022-.22.065-.341-.011a.95.95 0 0 0 .319-.23c.132-.012.022.186.022.24zm-.231-.253c-.143-.022-.253-.01-.242.132-.066-.077-.275-.011-.297-.12-.033-.165.121.076.11-.1.077-.01.132.012.165.044.11-.021.011-.076.077-.142.044 0 .099.01.099-.033.11-.022.088.11.088.22zm-.253.34c-.099.099-.209.209-.352.274a3.527 3.527 0 0 1-.12-.537c.197.044.241.241.472.263zm.473.055c.022.187.143.274.187.439-.242.11-.44.263-.462.625-.077-.022-.077.066-.176.033-.099-.088-.12-.242-.363-.198-.044-.12-.01-.307-.154-.329.264-.252.418-.647.968-.57zm.66 1.415c.494.844.406 1.919.604 2.971-.385-.756-1.066-2.05-.605-2.971zm.175-.143c.055-.252.11-.384.055-.603.396-.285 1.067.044.858.713-.33.11-.704.35-.913-.11zm.682-.79c.11-.438.847-.164.979.077-.088.285-.143.505-.363.691-.396-.066-.242-.669-.616-.767zm1.055-.098c.055 0 .088-.022.1-.066.032.198.076.373.285.406-.154.581-.582 1.162-1.011 1.557-.286-.954.835-1.02.626-1.897zm.198.12c-.01-.603.517-.953.88-.712-.077.318-.22.559-.242.943-.132-.066-.165-.077-.34-.044.01-.165-.199-.132-.298-.186zm1.012-.635c.099.032.352.065.407-.055.132-.022.033.164.055.252a2.69 2.69 0 0 0-.418.263c.044.241.022.384.154.57-.627.296-.495-.778-.198-1.03zm.154.471c.264-.175.528-.099.637.208-.033.154-.098.176-.044.351-.362.088-.615-.186-.593-.559zm.604.91c-.285-.153-.55.549-.78.11.264.022.605-.384.78-.11zm.275.154c-.165.087-.362.35-.55.186-.054-.318.352-.252.55-.186zm.297.044c.165.065.341.043.374-.132.055-.011.055.033.099.044.12.35-.187.669-.517.515-.066-.153-.066-.329.044-.427zm.319.8c.022-.077-.099-.197-.022-.22.132-.153.33-.24.33-.558.099.219-.121.657-.308.778zm.517-.34c-.088-.066.022-.208.044-.285.132-.055.264-.088.407-.12-.088.208-.275.306-.451.405zm.396-.581c.088-.208 0-.373-.044-.537.197-.121.516.076.494.372-.077.132-.22.198-.45.165zm.45.724c-.077-.077-.099-.198-.297-.154-.076-.153-.043-.252.011-.427.187-.011.264-.143.352-.275.176.176.363.176.528.373-.055.33-.352.373-.594.483zm.43.296c-.078-.066-.287.01-.265-.154.143-.055.55-.23.506-.723.154-.022.132.12.198.186a.903.903 0 0 1-.44.69zm.538.022a.271.271 0 0 1-.198-.22c.12-.11.264-.46.12-.636.452-.35.034.527.078.856zm.165-1.48c.01.032 0 .065.033.076.033.154-.077.132-.077.241-.044-.033-.066-.098-.1-.142-.043 0-.043.044-.098.033 0 .087 0 .175-.044.208-.055-.033-.11-.066-.1-.186-.098 0-.043.164-.175.131.044-.11.044-.274.044-.427.055.131.055.098.165.043a.286.286 0 0 0 .022.176c.077.022.077-.066.176-.033v.033a.099.099 0 0 0 .066-.066c-.1-.066-.143-.186-.154-.329-.055 0-.033.088-.044.143-.033-.066-.154-.055-.198-.11-.099.066-.176.208-.11.35-.12-.032-.12.122-.077.176.044 0 .022.055 0 0-.176-.01-.143-.23-.363-.197a.371.371 0 0 0-.165-.252c.011-.088.11 0 .1.044.054-.011.076-.055.076-.143-.022-.055-.055.011-.132-.044-.01-.142.165-.088.176-.208 0-.066-.11-.022-.132-.077.011-.088.143-.033.11-.175.132-.022.033.175.165.153-.132.055-.209.351-.044.428.132.055.066-.099.176-.066 0-.022.011-.044.033-.033 0-.044.044-.044.033-.11-.11.011-.154.1-.275.1.044-.1.066-.22.143-.275h.066c.011-.12-.077-.154-.132-.22.033-.076.121-.087.176-.13.11-.023.066.098.132.109.066.01.077-.033.077-.099.055 0 .11 0 .165.011.033.143.055.154.198.11.044.11.165.186.088.318-.022 0-.044 0-.033.033.077.022.143.153 0 .142.01-.022.033-.033.033-.055-.022-.01-.033-.033-.033-.076-.077-.088-.143.054-.231.065.01.1.154.154.23.077.012.099-.054.12-.076.198.01.054.055.054.11.054.022-.065.022-.153.11-.142-.011.098-.066.12-.11.142zm-1.034-1.744c.484-.274.88.044.693.702-.253.043-.319 0-.583.12-.187-.131-.176-.548-.11-.822zm1.605 2.73c-.582.066-.55-.669-.307-.932.285.022.384.241.527.417-.022.22-.077.417-.22.515zm.517-1.041c.033.274-.044.328-.12.526-.188-.22-.265-.548-.693-.526.088-.44.593-.11.813 0zm-.34-1.042c-.122.285-.089.756-.54.69.012-.098-.076-.11-.054-.219.187-.164.319-.373.395-.658.066.055.1.143.198.187zm-.297-.263a.78.78 0 0 1-.297.559c-.22.01-.264-.132-.44-.165.165-.383-.055-.954.462-.69.044.153.132.252.275.296zm-.088-.395c-.275-.022-.407-.187-.682-.033-.033-.044-.022-.132-.099-.143.099-.285.78-.131.78.176zm-.033-.965c-.132.208-.297.373-.594.406a.705.705 0 0 1-.198-.297c.264-.153.704-.822.792-.11zm-.858-.812c.132.099.143-.054.308-.022.132.505-.209 1.14-.638.79.011-.373.308-.417.33-.768zm-.264.91c.066.11.264.11.33.23.033.089-.11.165-.011.21-.066.109-.099-.11-.132-.143-.11 0-.044.219.022.252-.01.066-.066.077-.143.066-.11.12-.253.043-.374.087-.022-.11.044-.131.044-.208-.066-.11-.077.164-.209.099.033-.088.1-.132.11-.242-.11-.01-.12.088-.143.176-.066-.055-.143-.088-.132-.22.21-.12.374-.263.638-.306zm-.692-.767c.274.088.571.296.417.69-.209.1-.494.132-.648-.065-.033-.154-.055-.318-.088-.46.143-.023.264-.066.319-.165zm-.121-.395c-.033.143-.033.143-.011.285-.44.362-.814.165-1.045-.329.33-.033.748.066 1.056.044zm-.913-.11c-.11-.065-.088-.252-.154-.361.858-.57 1.495.471.154.361zm.121-.668c.011.01.022.01.055.01.01 0 .01.011.022.011h.022l.088.088s0 .011-.011.011c-.022-.033-.066-.066-.1-.099-.054 0-.087 0-.076-.021zm-.066.098c-.176.099-.418.12-.572-.022.088-.219.44-.033.572.022zm-.627-.307c0 .132-.099.154-.176.209-.077-.044-.22-.011-.23-.121-.121-.022-.088.12-.21.099a.651.651 0 0 1-.33-.406c.32-.143.825-.143.946.22zm-.934-.537c-.022.12-.187.077-.21.208-.175-.11-.516-.066-.637-.241-.099.175.176.263.363.263-.165.187-.77.055-.88-.142.154.043.264-.154.374-.022.055-.011.077-.055.077-.143.297.066.715-.077.913.077zM84.238.482c-.286-.043-.495-.186-.682-.032-.077-.187.737-.318.682.032zm.033.143c.01 0 .01 0 .022-.01.022-.012.033-.023.044-.034-.011-.033-.022-.066-.022-.077 0 .011.01.044.022.077.043-.055.054-.153.12-.197.242.088.242-.066.44.022-.077.087-.23.087-.308.164.341.11.55-.318.858-.175-.022.12.12.087.099.22-.176.262-.473.23-.858.207A.513.513 0 0 0 84.49.57c.022.12-.033.285.088.318-.044.132-.176-.142-.23-.296-.011.011-.033.022-.044.033-.022.132-.044.329-.066.395-.121-.055-.154.01-.231-.077-.187.22-.528-.033-.748-.099.143-.076-.01-.076.011-.208a1.174 1.174 0 0 1 1-.01zm-.836-.252c0 .142-.209.033-.209.164-.143-.131-.44-.12-.495-.34.308-.01.55-.11.704.176zm-.396.373c-.297.055-.78.01-.945-.253-.077-.537.88-.065.945.253zm.1.219c-.188.307-.672.22-.99.175-.363-.592.66-.24.99-.175zM81.884.877c.088.143 0 .209.088.395-.242-.055-.484.099-.605-.055.077-.22.308-.263.517-.34zm-.682 1.042c.055-.055.176-.022.275-.022-.011.066.044.077.033.143-.264 0-.099.285-.319.307.033-.176-.055-.351.011-.428zm.11.603c.242.099.682 0 .847.176-.044.142-.044.24.055.318-.264.12-.605.329-.924.285-.077-.154 0-.285-.12-.428.131-.099.054-.252.142-.35zm.022 1.173c0 .066-.033.088-.077.1.099.12.187.065.231.251.055-.022.176.044.176-.033.077 0 .01.132.022.176-.22.055-.484-.033-.638-.132.077-.252-.077-.416.088-.559.165-.01.077.197.198.197zm-.209-.45c-.022.056-.165.154-.01.154-.056.066-.1.165-.21.165-.044-.044-.132-.23-.23-.12-.243-.275.164-.845.44-.768-.122.197-.166.493.01.57zm-.682-1.183c.264-.011.396-.154.65-.011a.68.68 0 0 1-.056.493c-.11 0-.077-.132-.132-.186-.209.12-.34-.143-.55.044-.076-.11.066-.22.088-.34zm.462.515c-.22.132-.286.439-.494.581-.033.11.087.077.065.176-.033.076-.186-.088-.241.022-.253-.187-.21-.68 0-.889.263.066.395-.022.67.11zm-2.133-1.25c.187-.505.572-.505 1.034-.274.088.329-.21.285-.198.636-.352-.055-.704-.11-.836-.362zm.165.954c.1-.33.44-.395.77-.46-.154.263-.396.57-.77.46zm.165.153c.55-.11.627-.723 1.21-.45.01.68-.891.878-1.21.45zm.836.57c-.154-.043-.21-.186-.396-.197.077-.077.319.022.374-.087.077.076.044.153.022.285zm.12.428c-.098.099-.197-.153-.241.066-.154-.274-.638-.22-.902-.395.308-.383 1.067-.186 1.144.33zm-1.363-.087c.374-.1.671.01.979.142.077.263-.176.252-.187.526-.33.088-.605-.098-.88-.175-.088-.307.154-.252.088-.493zm-.055-.362c-.044.076-.022.24-.077.318-.33.044-.384-.198-.747-.132-.011.11-.143-.044 0 0 .12-.241.572-.35.824-.186zm-1.352.8c.154.099.352.165.429.34-.022.132-.165.132-.209.241-.176 0-.275-.076-.33-.186.022-.165.132-.197.11-.395zm-.594.428c.011-.307.242-.537.495-.439-.022.307-.23.636-.495.439zm.77-.494c.088-.11.154-.24.22-.383.154 0 .33-.132.473-.011-.011.252-.088.329-.121.526-.21-.099-.462.066-.572-.132zm.55-1.151c-.022.263-.198.35-.32.482-.098-.032-.197-.065-.23-.153.044-.274.275-.515.55-.329zm-.561.548c.11-.022.044.12.132.11-.066.12-.198.164-.22.35-.242 0-.418-.043-.616.078-.01-.132-.077-.22-.198-.154.055-.099-.01-.208.143-.241 0 .022-.01.044-.033.033.033.12.11 0 .132.142a.099.099 0 0 0 .066-.065c.011-.1-.088-.088-.132-.143.154-.186.462-.22.726-.11zm-.088-.362c.022.1-.055.088-.044.176a.903.903 0 0 1-.605-.165c.176-.11.418-.098.65-.01zm-.517.198c-.066.12-.187.186-.319.23-.065-.055-.164-.088-.197-.186-.11 0-.077.153-.242.098.022-.329.538-.263.758-.142zm-1.187.8c.022-.208.033-.307.12-.493.265-.022.419-.088.65.022-.11.329-.385.581-.77.471zm.253.614c.01-.098.01-.197-.1-.186.155-.252.43-.57.737-.537-.164.24-.34.482-.472.756-.044-.022-.088-.044-.165-.033zm.33.044c.088-.274.154-.559.461-.58a1.1 1.1 0 0 0-.12.635c-.056.044-.231-.033-.341-.055zm.66.735c-.034.099-.089-.055-.166-.011-.099.066 0 .22-.01.318-.078-.055-.1-.154-.166-.22-.098.012-.153.066-.175.165-.033-.099-.066-.208-.165-.252.033-.11.11-.154.044-.285a.214.214 0 0 0 .143-.132c.22-.01.44 0 .263.263.022.11.11-.021.165.011 0-.065-.022-.087-.066-.11.033-.098.11.023.165.012.066.142-.132.175-.033.241zm.22.296c.087-.439-.078-.779-.485-.833-.01-.055.033-.055.033-.11.638-.044.704.757.902 1.24-.187-.045-.297-.187-.45-.297zm.769-1.458c.132.022.198-.022.275-.055.022-.187.12-.285.12-.494.11.011.144-.055.275-.022-.175.23-.12.593.253.614-1.704 0-.483 1.36-.428 2.534-.517-.582-1.144-1.777-.495-2.577zm.319.548c.044 0 .044.044.099.044-.033-.132-.022-.296-.154-.33 0 .045-.055.023 0 0 0-.076.12-.01.176-.032-.022.142.022.23.164.22-.065.065-.241.35-.285.098zm2.451 5.592c.011 0 .022.011.033.022-.01-.01-.022-.01-.033-.022zm1.056 1.887c.022.01.033.032.044.054-.011-.022-.022-.043-.044-.054zm.462 1.908c.055 0 .088.033.12.054a.31.31 0 0 0-.12-.054zm.23-.713c.044.044.066.11.11.153-.055-.044-.077-.11-.11-.153zm.352.8c0-.01 0-.022.011-.033 0 .011-.01.022-.01.033zm.275-.022c-.539-.68-.88-1.568-1.374-2.291a9.79 9.79 0 0 0-1.88-2.917c.01.033-.077.01-.088-.077h.022a1.499 1.499 0 0 0-.187-.187c-1.1-1.096-.077-2.061-.418-3.454-.275.187-.33.614-.506.9-.186-.33.077-.757.275-1.053.297.153.594-.044.858-.143-.044.439.11.67.308.866.23-.087.406.143.582-.043.187.778.935 1.414 1.353 2.182v.033c.044 0 .022.055 0 0-.044 0-.1-.011-.1.033-.45-.505-1.22-.8-1.923-.505v.011c.01-.01.01 0 .01.011.276.077.66.165.858.406.011.12-.033.164-.044.241.22.11.583.077.671.307-.154.263.022.526.319.548-.198.373.407.45.418.483.022.077.241.055.296.11.451 1.041 1.023 2.807.55 4.54zm.11-6.875c.165 0 .198.131.198.296a.705.705 0 0 1-.198-.296zm.209 3.761c0-.044.011-.066.022-.066-.011.011-.022.022-.022.066zm.011 6.141c-.011 0-.011 0-.022.01 0-.01.011-.01.022-.01zm-.011.088c-.011.01-.011.01-.022.01.011 0 .022-.01.022-.01zm-.011 2.533v-.011.01zm-.022-3.224v.022c-.011-.011 0-.022 0-.022zm.022 3.235-.165 2.325c.055-.944.154-2.248.165-2.325zm-.11 2.807c-.022-.022-.066-.033-.01.044v.01-.01h-.078v-.011c.033.01.055.01.066 0-.055-.077-.01-.066.022-.033.044-.395.077-.493.099-.439-.022-.01-.055.1-.099.439 0 0 .011.011 0 0 .011.011 0 0 0 0v.033c-.01-.011-.01-.022 0-.033zm0 .044c.011 0 .011-.011.011-.022 0 .01 0 .01-.01.022zm.418-4.408c.022.01.033.01.033-.011v-.033s.01.01.01.022v.022c0 .01-.01.022-.032.01-.297 1.338-.297 2.896-.066 4.464-.088 0-.176-.011-.275-.011v-.011c.088 0 .165.01.264.01-.231-1.567-.231-3.125.066-4.462zm.033-5.922c-.165-.34-.143-1.59-.286-1.612-.11-2.16 1.044-3.005 1.814-4.255.264.264.528.187.946.143-.231.077-.451.175-.726.22-.121.493.539.295.726.559.175.032.175-.121.307-.132.264.175.484.395.583.735-1.11 1.458-1.968 3.202-3.364 4.342zm5.156-8.191h-.066v.065h.066c-.01-.022 0-.043 0-.065zm-.055.35c.022-.021.1-.208-.033-.175.022.044-.033.176.033.176zm.11 0c.022-.021.1-.208-.022-.175.011.055-.055.176.022.176zm.132-.032c.044-.055.044-.088 0-.143-.077.011-.088.143 0 .143zM77.443 3.213c.044-.011.033-.066 0-.066v-.033h-.132c-.01.088.044.11.132.099zm-.308.066c.011.263.264.022 0 0zm.21.077h.065V3.29h-.066v.066zm-.309-.011v.11c.088.054.1-.165 0-.11zm-.143.175h.066v-.143h-.066v.143zm-.472 1.678c.11.022.153-.022.142-.132-.098-.022-.153.022-.142.132zm9.279-.965v.11c.099.043.11-.165 0-.11zm.407.186c.044 0 .033-.066.033-.11-.033-.01-.022-.076-.066-.076-.077.033-.011.175.033.186zm-.605-.131h-.066v.065h.066c-.011-.01 0-.043 0-.065zm.022.076c-.011.055-.088.033-.132.033-.011.066.033.077.033.143-.077-.011-.055-.12-.165-.11.033.198.308.285.34.12-.043.143.11.078.056.22.132.033.143-.088.143-.208-.154.142-.154-.12-.275-.198zm.539.209c.033-.011.033.033.033.066.099-.022.274-.198.143-.242-.033.044-.055.11-.11.143-.011-.055-.055-.011-.066.033zm-.231-.088c0 .11-.044.274.088.252-.033-.142.055-.208-.088-.252zm.165 0c-.088.077.044.22.066.077-.033-.011-.022-.077-.066-.077zm-.451.23c-.011.055-.088.033-.132.033-.077.318.363.088.132-.033zm-3.068.307c-.088.11.121-.087 0 0zm.682-.01c-.055-.012-.055.032-.099.032-.01.066.154.055.1-.033zm-.077.24v-.109a.14.14 0 0 0-.099-.044c-.033.12.055.12.1.154zm0-.098h.066c0-.044-.055-.044-.066 0zm-.813 0c0 .033.01.033.033.033.01-.033-.011-.033-.033-.033zm.197.077c-.033-.066-.11-.099-.164-.044 0 .055 0 .12-.011.175.022.066.087.099.164.11.033-.033.044-.077.044-.143-.022-.033-.11.011-.033-.098zm.473.274c-.033-.066.011-.198-.099-.187 0 .088 0 .187.1.187zm-.198-.154c0 .132-.033.011-.099.033v.143c.044.044.121.044.198.044-.022-.1 0-.22-.099-.22zm.473.022c-.055.055-.143.066-.11.209.055 0 .11 0 .165.01 0-.065.044-.076.044-.142-.044-.022-.055-.066-.099-.077zm-.242.198c-.077-.022-.066.043-.077.098.044.011.033.066.033.11.1-.022.143-.154.044-.208zm-.286.24c.055 0 .11 0 .165.012a.244.244 0 0 0 .044-.143c-.099-.131-.286-.033-.209.132zm4.376.176c-.033 0-.044-.033-.066-.033 0 .033-.033.044-.033.066.033 0 .044.022.066.033 0-.033.033-.044.033-.066zm.143 0h-.099v.11h.066c0-.044.033-.044.033-.11zm-.011.11c-.12.164.198.055 0 0zm-.374.164c0 .022-.01.044-.033.033v.066c.077.066.1-.11.033-.099zm.198.077h.066v-.066h-.066v.066zm-.374-.055h-.066c-.044.044-.01.055 0 .11.033-.01.033-.033.066-.033v-.077zm.308.022h-.066v.066h.066v-.066zm.21 0v.11h.098c0-.077-.033-.11-.099-.11zm-.65.088c-.022.055.022.066.066.066v-.066h-.066zm.066.066v.033c.022.01.033.033.066.044.011-.044.066-.055.077-.1-.077-.076-.077.012-.143.023zm.506-.011c-.01.066-.132.022-.11.142.044.044.176.011.21-.065-.045-.011-.056-.066-.1-.077zm-.34.055c-.089.12.12-.077 0 0zm.098-.033c-.01.077 0 .131.066.142.044-.033.033-.142-.066-.142zm-6.52-2.818c-.043 0-.043-.044-.098-.044-.066.087.11.12.099.044zm.034 0c.033.142.044-.132 0 0zm.263.12c-.066-.01.066-.131-.066-.142-.01.033-.033.044-.066.033-.01.076.1.197.132.11zm-.44-.087h-.065v.065h.066v-.065zm.572.131c-.044 0-.044-.044-.099-.044v.11h.066c0-.033.033-.044.033-.066zm-.45.33c0-.045.01-.067.033-.067.01-.087.153-.197.01-.252a.544.544 0 0 1-.11.241c-.021-.131-.11.022-.131-.11.01-.087.12-.065.11-.175-.407.022-.165.395.088.362zm.516-.33c-.01.044-.055.066-.044.143.077.01.088-.044.143-.033.011-.077-.022-.11-.099-.11zm-.132.176c.033.142.044-.143 0 0zm-.22.197c.011-.077.1-.066.11-.143-.066-.12-.208.077-.11.143zm.187-.143c-.055.066-.12.143-.044.22h.1c.076-.077.021-.198-.056-.22zm.165.022c-.044.011 0 .066.033.077 0-.044-.01-.077-.033-.077zm-.483.011v.066a.14.14 0 0 0 .066.011c.01-.055-.022-.066-.066-.077zm-.176.176c.044.142.044-.143 0 0zm.176.11c.01-.044.055-.066.044-.143h-.11c-.011.077 0 .131.066.142zm.164-.034v-.065c0-.088-.11-.011-.098.033.043 0 .043.043.098.032zm2.958-1.897c.01-.087-.044-.11-.099-.142-.12.066-.011.23.099.142zm-.23 0c0-.043.021-.054.032-.076-.033 0-.044-.033-.066-.033 0 .033-.033.044-.033.066.033 0 .044.032.066.043zm.494.154v-.066c-.154-.033-.242-.066-.275.12.132.023.11-.12.275-.054zm-.374-.055c-.011-.01.022.033 0 0zm-.715.077c-.11-.022-.143.044-.176.099.066 0 .077.043.132.043.022-.043.055-.065.044-.142zm.814.077c.033.131-.088.12-.11.208.044.044.121.044.198.044-.022-.088.022-.241-.088-.252zm-.143.274c-.022-.077.066-.241-.055-.22-.01.055.011.132-.044.143 0-.055-.088-.12-.066 0 .022.055.11.055.165.077zm.275-.132c.077.143.055-.12 0 0zm-1.199-.044c-.054.055 0 .12 0 .209.044 0 .088 0 .132.01.033-.01.022-.065.066-.065 0-.11-.066-.154-.198-.154zm.484.11c0-.044.033-.044.033-.099-.033-.033-.088-.055-.165-.044-.022.121.055.143.132.154v.099c.121.01.154-.077.21-.165-.067 0-.067-.044-.133-.044 0 .066-.033.088-.077.099zm-.242.077c.022.022-.01-.022 0 0zm.44.087c.022.022-.01-.021 0 0zm-.45.121c.098.099.197.143.274.011.011-.197-.253-.164-.275-.01zm4.254-1.107c0 .032-.033.043-.033.065.044 0 .044.044.1.044.01-.055-.023-.088-.067-.11zm-1.154.032c.033.132.044-.142 0 0zm1.022.033c-.088.121.11-.076 0 0zm-.857.044c.022.011.033.033.066.033.055-.099-.088-.164-.066-.033zm-.176.132c.11.01.165-.033.176-.132-.11-.022-.187 0-.176.132zm.209-.033c.099.12.066-.12 0 0zm.176-.022c.044.088.033.241.165.252.087 0 .076-.12.076-.208-.131-.055-.131 0-.241-.044zm.604.132c.033.142.044-.143 0 0zm2.43 3.29c.066.01 0 .153.099.142-.022-.143.154-.055.11-.209-.099 0-.198-.021-.209.066zm.605.021c-.066-.077-.198-.033-.275-.01 0-.045-.011-.088-.066-.078v.143c.165.011.319.165.34-.055zm-.682.077c-.033.154.11.01 0 0zm.033.285c0 .033-.01.033-.033.033-.01.044 0 .066.033.077.055 0 .088-.022.11-.066-.022-.044-.077-.033-.11-.044zm-.22.318c.033-.044.044-.088.044-.175-.044-.011-.099-.011-.143-.011-.01.098-.01.197.1.186zm.11-.175c.022.076-.055.23.022.252.033-.066.088-.099.11-.176-.066 0-.044-.098-.132-.076zm.33.186c-.055.055-.055.132.066.11 0-.055-.022-.088-.066-.11z" fill="#964C6F" fill-rule="nonzero"/>
</svg>
