<?xml version="1.0" encoding="UTF-8"?>
<svg width="13px" height="24px" viewBox="0 0 13 24" version="1.1" xmlns="http://www.w3.org/2000/svg" xmlns:xlink="http://www.w3.org/1999/xlink">
    <title>3E9C49C5-8461-4253-ADB0-CB97CE0A123F@1x</title>
    <g id="Overviews" stroke="none" stroke-width="1" fill="none" fill-rule="evenodd">
        <g id="Font-Family" transform="translate(-366.000000, -735.000000)" fill="#1F2E3D">
            <g id="4_Icons/Default/Arrow/chevron-right" transform="translate(361.000000, 735.000000)">
                <path d="M11.5,7.91421356 L21.7928932,18.2071068 C22.1834175,18.5976311 22.8165825,18.5976311 23.2071068,18.2071068 C23.5976311,17.8165825 23.5976311,17.1834175 23.2071068,16.7928932 L12.2071068,5.79289322 C11.8165825,5.40236893 11.1834175,5.40236893 10.7928932,5.79289322 L-0.207106781,16.7928932 C-0.597631073,17.1834175 -0.597631073,17.8165825 -0.207106781,18.2071068 C0.183417511,18.5976311 0.816582489,18.5976311 1.20710678,18.2071068 L11.5,7.91421356 Z" id="Icon" transform="translate(11.500000, 12.000000) rotate(90.000000) translate(-11.500000, -12.000000) "></path>
            </g>
        </g>
    </g>
</svg>