<?xml version="1.0" encoding="UTF-8"?>
<svg width="14px" height="24px" viewBox="0 0 14 24" version="1.1" xmlns="http://www.w3.org/2000/svg" xmlns:xlink="http://www.w3.org/1999/xlink">
    <title>8C424C90-5C15-4C66-B8A0-44A17CEC8973@1x</title>
    <g id="Overviews" stroke="none" stroke-width="1" fill="none" fill-rule="evenodd">
        <g id="Font-Family" transform="translate(-311.000000, -735.000000)" fill="#1F2E3D">
            <g id="4_Icons/Default/Arrow/chevron-left" transform="translate(305.000000, 735.000000)">
                <path d="M8.91421356,12 L19.2071068,22.2928932 C19.5976311,22.6834175 19.5976311,23.3165825 19.2071068,23.7071068 C18.8165825,24.0976311 18.1834175,24.0976311 17.7928932,23.7071068 L6.79289322,12.7071068 C6.40236893,12.3165825 6.40236893,11.6834175 6.79289322,11.2928932 L17.7928932,0.292893219 C18.1834175,-0.0976310729 18.8165825,-0.0976310729 19.2071068,0.292893219 C19.5976311,0.683417511 19.5976311,1.31658249 19.2071068,1.70710678 L8.91421356,12 Z" id="Icon"></path>
            </g>
        </g>
    </g>
</svg>